{"componentChunkName":"component---packages-blog-gatsby-blog-core-src-templates-tags-gs-js","path":"/cars/page/10/","result":{"data":{"collectionInfo":null,"posts":{"nodes":[{"title":"Test 182","slug":"test182","icon":"shop-iconV2.svg","filters":"Test1"},{"title":"Test 183","slug":"test183","icon":"shop-iconV2.svg","filters":"Test2"},{"title":"Test 184","slug":"test184","icon":"shop-iconV2.svg","filters":"Test3"},{"title":"Test 185","slug":"test185","icon":"shop-iconV2.svg","filters":"Test 3, Test4"},{"title":"Test 186","slug":"test186","icon":"shop-iconV2.svg","filters":"Test3"},{"title":"Test 187","slug":"test187","icon":"shop-iconV2.svg","filters":"Test3"},{"title":"Test 188","slug":"test188","icon":"shop-iconV2.svg","filters":"Test1"},{"title":"Test 189","slug":"test189","icon":"shop-iconV2.svg","filters":"Test1"},{"title":"Test 190","slug":"test190","icon":"shop-iconV2.svg","filters":"Test2"},{"title":"Test 191","slug":"test191","icon":"shop-iconV2.svg","filters":"Test3, Test4"},{"title":"Test 192","slug":"test192","icon":"shop-iconV2.svg","filters":"Test5, Test6"},{"title":"Test 193","slug":"test193","icon":"shop-iconV2.svg","filters":"Test5, Test6"},{"title":"Test 194","slug":"test194","icon":"shop-iconV2.svg","filters":"Test1"},{"title":"Test 195","slug":"test195","icon":"shop-iconV2.svg","filters":"Test2"},{"title":"Test 196","slug":"test196","icon":"shop-iconV2.svg","filters":"Test3"},{"title":"Test 197","slug":"test197","icon":"shop-iconV2.svg","filters":"Test 3, Test4"},{"title":"Test 198","slug":"test198","icon":"shop-iconV2.svg","filters":"Test3"},{"title":"Test 199","slug":"test199","icon":"shop-iconV2.svg","filters":"Test3"},{"title":"Test 200","slug":"test200","icon":"shop-iconV2.svg","filters":"Test1"},{"title":"Test 201","slug":"test201","icon":"shop-iconV2.svg","filters":"Test1"}],"pageInfo":{"pageCount":15,"hasPreviousPage":true,"hasNextPage":true,"currentPage":10},"totalCount":287}},"pageContext":{"slug":"cars","limit":20,"skip":180,"collectionType":"tag","paginatePostsPage":false,"basePath":"/","services":{"algolia":false,"mailchimp":false,"disqus":false,"graphComment":false,"facebookComment":false},"siteUrl":null,"mobileMenu":{"title":"Topics","items":[{"name":"Advertising","slug":"/category/advertising/"},{"name":"Innovation","slug":"/category/innovation/"},{"name":"Management","slug":"/category/management/"},{"name":"Case Studies","slug":"/category/case-studies/"}]},"darkMode":true,"includeExcerpt":true,"includeTimeToRead":true,"includeTableOfContents":true,"imageQuality":75}},"staticQueryHashes":["1992822086","2103122295","2409295108","2899663612"]}