{"componentChunkName":"component---packages-blog-gatsby-blog-core-src-templates-tags-gs-js","path":"/business/page/11/","result":{"data":{"collectionInfo":{"name":"#business","slug":"business"},"posts":{"nodes":[{"title":"Test 201","slug":"test201","icon":"shop-iconV2.svg","filters":"Test1"},{"title":"Test 202","slug":"test202","icon":"shop-iconV2.svg","filters":"Test2"},{"title":"Test 203","slug":"test203","icon":"shop-iconV2.svg","filters":"Test3, Test4"},{"title":"Test 204","slug":"test204","icon":"shop-iconV2.svg","filters":"Test5, Test6"},{"title":"Test 205","slug":"test205","icon":"shop-iconV2.svg","filters":"Test5, Test6"},{"title":"Test 206","slug":"test206","icon":"shop-iconV2.svg","filters":"Test1"},{"title":"Test 207","slug":"test207","icon":"shop-iconV2.svg","filters":"Test2"},{"title":"Test 208","slug":"test208","icon":"shop-iconV2.svg","filters":"Test3"},{"title":"Test 209","slug":"test209","icon":"shop-iconV2.svg","filters":"Test 3, Test4"},{"title":"Test 210","slug":"test210","icon":"shop-iconV2.svg","filters":"Test3"},{"title":"Test 211","slug":"test211","icon":"shop-iconV2.svg","filters":"Test3"},{"title":"Test 212","slug":"test212","icon":"shop-iconV2.svg","filters":"Test1"},{"title":"Test 213","slug":"test213","icon":"shop-iconV2.svg","filters":"Test1"},{"title":"Test 214","slug":"test214","icon":"shop-iconV2.svg","filters":"Test2"},{"title":"Test 215","slug":"test215","icon":"shop-iconV2.svg","filters":"Test3, Test4"},{"title":"Test 216","slug":"test216","icon":"shop-iconV2.svg","filters":"Test5, Test6"},{"title":"Test 217","slug":"test217","icon":"shop-iconV2.svg","filters":"Test5, Test6"},{"title":"Test 218","slug":"test218","icon":"shop-iconV2.svg","filters":"Test1"},{"title":"Test 219","slug":"test219","icon":"shop-iconV2.svg","filters":"Test2"},{"title":"Test 220","slug":"test220","icon":"shop-iconV2.svg","filters":"Test3"}],"pageInfo":{"pageCount":15,"hasPreviousPage":true,"hasNextPage":true,"currentPage":11},"totalCount":288}},"pageContext":{"slug":"business","limit":20,"skip":200,"collectionType":"tag","paginatePostsPage":false,"basePath":"/","services":{"algolia":false,"mailchimp":false,"disqus":false,"graphComment":false,"facebookComment":false},"siteUrl":null,"mobileMenu":{"title":"Topics","items":[{"name":"Advertising","slug":"/category/advertising/"},{"name":"Innovation","slug":"/category/innovation/"},{"name":"Management","slug":"/category/management/"},{"name":"Case Studies","slug":"/category/case-studies/"}]},"darkMode":true,"includeExcerpt":true,"includeTimeToRead":true,"includeTableOfContents":true,"imageQuality":75}},"staticQueryHashes":["1992822086","2103122295","2409295108","2899663612"]}