{"componentChunkName":"component---packages-blog-gatsby-blog-core-src-templates-author-gs-js","path":"/jane_smith/page/2/","result":{"data":{"collectionInfo":{"id":"78ac3c44-6316-51dd-8ff3-b75d84444402","slug":"jane_smith","name":"Jane Smith","photo":"jane-smith.jpg","description":"Sed commodo, est quis maximus fermentum, massa ipsum euismod neque, in varius risus tellus quis lacus. Sed ac bibendum odio.","expertise":"Advertising, Bussiness, Designer","position":"Creative Designer","instagram":"https://instagram.com/","twitter":"https://twitter.com/","website":"https://www.google.com/"},"posts":{"nodes":[{"title":"Test 32","slug":"test32","icon":"shop-iconV2.svg","filters":"Test1"},{"title":"Test 33","slug":"test33","icon":"shop-iconV2.svg","filters":"Test1"},{"title":"Test 35","slug":"test35","icon":"shop-iconV2.svg","filters":"Test3, Test4"},{"title":"Test 36","slug":"test36","icon":"shop-iconV2.svg","filters":"Test5, Test6"},{"title":"Test 39","slug":"test39","icon":"shop-iconV2.svg","filters":"Test2"},{"title":"Test 40","slug":"test40","icon":"shop-iconV2.svg","filters":"Test3"},{"title":"Test 42","slug":"test42","icon":"shop-iconV2.svg","filters":"Test3"},{"title":"Test 43","slug":"test43","icon":"shop-iconV2.svg","filters":"Test3"},{"title":"Test 44","slug":"test44","icon":"shop-iconV2.svg","filters":"Test1"},{"title":"Test 45","slug":"test45","icon":"shop-iconV2.svg","filters":"Test1"},{"title":"Test 47","slug":"test47","icon":"shop-iconV2.svg","filters":"Test3, Test4"},{"title":"Test 48","slug":"test48","icon":"shop-iconV2.svg","filters":"Test5, Test6"},{"title":"Test 51","slug":"test51","icon":"shop-iconV2.svg","filters":"Test2"},{"title":"Test 52","slug":"test52","icon":"shop-iconV2.svg","filters":"Test3"},{"title":"Test 54","slug":"test54","icon":"shop-iconV2.svg","filters":"Test3"},{"title":"Test 55","slug":"test55","icon":"shop-iconV2.svg","filters":"Test3"},{"title":"Test 56","slug":"test56","icon":"shop-iconV2.svg","filters":"Test1"},{"title":"Test 57","slug":"test57","icon":"shop-iconV2.svg","filters":"Test1"},{"title":"Test 59","slug":"test59","icon":"shop-iconV2.svg","filters":"Test3, Test4"},{"title":"Test 60","slug":"test60","icon":"shop-iconV2.svg","filters":"Test5, Test6"}],"pageInfo":{"pageCount":10,"hasPreviousPage":true,"hasNextPage":true,"currentPage":2},"totalCount":192}},"pageContext":{"slug":"jane_smith","limit":20,"skip":20,"collectionType":"autho","paginatePostsPage":false,"basePath":"/","services":{"algolia":false,"mailchimp":false,"disqus":false,"graphComment":false,"facebookComment":false},"siteUrl":null,"mobileMenu":{"title":"Topics","items":[{"name":"Advertising","slug":"/category/advertising/"},{"name":"Innovation","slug":"/category/innovation/"},{"name":"Management","slug":"/category/management/"},{"name":"Case Studies","slug":"/category/case-studies/"}]},"darkMode":true,"includeExcerpt":true,"includeTimeToRead":true,"includeTableOfContents":true,"imageQuality":75}},"staticQueryHashes":["1992822086","2103122295","2409295108","2899663612"]}