{"componentChunkName":"component---packages-blog-gatsby-blog-core-src-templates-author-gs-js","path":"/john_doe/page/4/","result":{"data":{"collectionInfo":{"id":"eb33d9e2-4672-541d-acc6-ddc5c5f95b5b","slug":"john_doe","name":"John Doe","photo":"john-doe.jpg","description":"Sed commodo, est quis maximus fermentum, massa ipsum euismod neque, in varius risus tellus quis lacus. Sed ac bibendum odio.","expertise":"JavaScript, React, Nodejs","position":"Web Developer","instagram":"https://instagram.com/","twitter":"https://twitter.com/","website":"https://www.google.com/"},"posts":{"nodes":[{"title":"Test 181","slug":"test181","icon":"shop-iconV2.svg","filters":"Test5, Test6"},{"title":"Test 182","slug":"test182","icon":"shop-iconV2.svg","filters":"Test1"},{"title":"Test 185","slug":"test185","icon":"shop-iconV2.svg","filters":"Test 3, Test4"},{"title":"Test 190","slug":"test190","icon":"shop-iconV2.svg","filters":"Test2"},{"title":"Test 193","slug":"test193","icon":"shop-iconV2.svg","filters":"Test5, Test6"},{"title":"Test 194","slug":"test194","icon":"shop-iconV2.svg","filters":"Test1"},{"title":"Test 197","slug":"test197","icon":"shop-iconV2.svg","filters":"Test 3, Test4"},{"title":"Test 202","slug":"test202","icon":"shop-iconV2.svg","filters":"Test2"},{"title":"Test 205","slug":"test205","icon":"shop-iconV2.svg","filters":"Test5, Test6"},{"title":"Test 206","slug":"test206","icon":"shop-iconV2.svg","filters":"Test1"},{"title":"Test 209","slug":"test209","icon":"shop-iconV2.svg","filters":"Test 3, Test4"},{"title":"Test 214","slug":"test214","icon":"shop-iconV2.svg","filters":"Test2"},{"title":"Test 217","slug":"test217","icon":"shop-iconV2.svg","filters":"Test5, Test6"},{"title":"Test 218","slug":"test218","icon":"shop-iconV2.svg","filters":"Test1"},{"title":"Test 221","slug":"test221","icon":"shop-iconV2.svg","filters":"Test 3, Test4"},{"title":"Test 226","slug":"test226","icon":"shop-iconV2.svg","filters":"Test2"},{"title":"Test 229","slug":"test229","icon":"shop-iconV2.svg","filters":"Test5, Test6"},{"title":"Test 230","slug":"test230","icon":"shop-iconV2.svg","filters":"Test1"},{"title":"Test 233","slug":"test233","icon":"shop-iconV2.svg","filters":"Test 3, Test4"},{"title":"Test 238","slug":"test238","icon":"shop-iconV2.svg","filters":"Test2"}],"pageInfo":{"pageCount":5,"hasPreviousPage":true,"hasNextPage":true,"currentPage":4},"totalCount":96}},"pageContext":{"slug":"john_doe","limit":20,"skip":60,"collectionType":"autho","paginatePostsPage":false,"basePath":"/","services":{"algolia":false,"mailchimp":false,"disqus":false,"graphComment":false,"facebookComment":false},"siteUrl":null,"mobileMenu":{"title":"Topics","items":[{"name":"Advertising","slug":"/category/advertising/"},{"name":"Innovation","slug":"/category/innovation/"},{"name":"Management","slug":"/category/management/"},{"name":"Case Studies","slug":"/category/case-studies/"}]},"darkMode":true,"includeExcerpt":true,"includeTimeToRead":true,"includeTableOfContents":true,"imageQuality":75}},"staticQueryHashes":["1992822086","2103122295","2409295108","2899663612"]}