{"componentChunkName":"component---packages-blog-gatsby-blog-core-src-templates-categories-gs-js","path":"/category2/page/2/","result":{"data":{"collectionInfo":{"id":"5af2e4fd-86a2-50bf-b8a6-fd78aa5aa811","name":"Category 2","slug":"category2","description":"Lorem ipsum dolor sit amet, consectetur adipiscing elit, sed do eiusmod tempor incididunt ut labore."},"posts":{"nodes":[{"title":"Test 130","slug":"test130","icon":"shop-iconV2.svg","filters":"Test2"},{"title":"Test 131","slug":"test131","icon":"shop-iconV2.svg","filters":"Test3, Test4"},{"title":"Test 142","slug":"test142","icon":"shop-iconV2.svg","filters":"Test2"},{"title":"Test 143","slug":"test143","icon":"shop-iconV2.svg","filters":"Test3, Test4"},{"title":"Test 154","slug":"test154","icon":"shop-iconV2.svg","filters":"Test2"},{"title":"Test 155","slug":"test155","icon":"shop-iconV2.svg","filters":"Test3, Test4"},{"title":"Test 166","slug":"test166","icon":"shop-iconV2.svg","filters":"Test2"},{"title":"Test 167","slug":"test167","icon":"shop-iconV2.svg","filters":"Test3, Test4"},{"title":"Test 178","slug":"test178","icon":"shop-iconV2.svg","filters":"Test2"},{"title":"Test 179","slug":"test179","icon":"shop-iconV2.svg","filters":"Test3, Test4"},{"title":"Test 190","slug":"test190","icon":"shop-iconV2.svg","filters":"Test2"},{"title":"Test 191","slug":"test191","icon":"shop-iconV2.svg","filters":"Test3, Test4"},{"title":"Test 202","slug":"test202","icon":"shop-iconV2.svg","filters":"Test2"},{"title":"Test 203","slug":"test203","icon":"shop-iconV2.svg","filters":"Test3, Test4"},{"title":"Test 214","slug":"test214","icon":"shop-iconV2.svg","filters":"Test2"},{"title":"Test 215","slug":"test215","icon":"shop-iconV2.svg","filters":"Test3, Test4"},{"title":"Test 226","slug":"test226","icon":"shop-iconV2.svg","filters":"Test2"},{"title":"Test 227","slug":"test227","icon":"shop-iconV2.svg","filters":"Test3, Test4"},{"title":"Test 238","slug":"test238","icon":"shop-iconV2.svg","filters":"Test2"},{"title":"Test 239","slug":"test239","icon":"shop-iconV2.svg","filters":"Test3, Test4"}],"pageInfo":{"pageCount":3,"hasPreviousPage":true,"hasNextPage":true,"currentPage":2},"totalCount":48}},"pageContext":{"slug":"category2","limit":20,"skip":20,"collectionType":"categor","paginatePostsPage":false,"basePath":"/","services":{"algolia":false,"mailchimp":false,"disqus":false,"graphComment":false,"facebookComment":false},"siteUrl":null,"mobileMenu":{"title":"Topics","items":[{"name":"Advertising","slug":"/category/advertising/"},{"name":"Innovation","slug":"/category/innovation/"},{"name":"Management","slug":"/category/management/"},{"name":"Case Studies","slug":"/category/case-studies/"}]},"darkMode":true,"includeExcerpt":true,"includeTimeToRead":true,"includeTableOfContents":true,"imageQuality":75}},"staticQueryHashes":["1992822086","2103122295","2409295108","2899663612"]}