{"componentChunkName":"component---packages-blog-gatsby-blog-core-src-templates-tags-gs-js","path":"/agency/page/15/","result":{"data":{"collectionInfo":{"name":"#agency","slug":"agency"},"posts":{"nodes":[{"title":"Test 281","slug":"test281","icon":"shop-iconV2.svg","filters":"Test 3, Test4"},{"title":"Test 282","slug":"test282","icon":"shop-iconV2.svg","filters":"Test3"},{"title":"Test 283","slug":"test283","icon":"shop-iconV2.svg","filters":"Test3"},{"title":"Test 284","slug":"test284","icon":"shop-iconV2.svg","filters":"Test1"},{"title":"Test 285","slug":"test285","icon":"shop-iconV2.svg","filters":"Test1"},{"title":"Test 286","slug":"test286","icon":"shop-iconV2.svg","filters":"Test2"},{"title":"Test 287","slug":"test287","icon":"shop-iconV2.svg","filters":"Test3, Test4"},{"title":"Test 288","slug":"test288","icon":"shop-iconV2.svg","filters":"Test5, Test6"}],"pageInfo":{"pageCount":15,"hasPreviousPage":true,"hasNextPage":false,"currentPage":15},"totalCount":288}},"pageContext":{"slug":"agency","limit":20,"skip":280,"collectionType":"tag","paginatePostsPage":false,"basePath":"/","services":{"algolia":false,"mailchimp":false,"disqus":false,"graphComment":false,"facebookComment":false},"siteUrl":null,"mobileMenu":{"title":"Topics","items":[{"name":"Advertising","slug":"/category/advertising/"},{"name":"Innovation","slug":"/category/innovation/"},{"name":"Management","slug":"/category/management/"},{"name":"Case Studies","slug":"/category/case-studies/"}]},"darkMode":true,"includeExcerpt":true,"includeTimeToRead":true,"includeTableOfContents":true,"imageQuality":75}},"staticQueryHashes":["1992822086","2103122295","2409295108","2899663612"]}