{"componentChunkName":"component---packages-blog-gatsby-blog-core-src-templates-categories-gs-js","path":"/category1/page/6/","result":{"data":{"collectionInfo":{"id":"adf5d943-cf7c-560d-8bcc-180ad42e98b0","name":"Category 1","slug":"category1","description":"Lorem ipsum dolor sit amet, consectetur adipiscing elit, sed do eiusmod tempor incididunt ut labore."},"posts":{"nodes":[{"title":"Test 134","slug":"test134","icon":"shop-iconV2.svg","filters":"Test1"},{"title":"Test 135","slug":"test135","icon":"shop-iconV2.svg","filters":"Test2"},{"title":"Test 136","slug":"test136","icon":"shop-iconV2.svg","filters":"Test3"},{"title":"Test 137","slug":"test137","icon":"shop-iconV2.svg","filters":"Test 3, Test4"},{"title":"Test 138","slug":"test138","icon":"shop-iconV2.svg","filters":"Test3"},{"title":"Test 139","slug":"test139","icon":"shop-iconV2.svg","filters":"Test3"},{"title":"Test 140","slug":"test140","icon":"shop-iconV2.svg","filters":"Test1"},{"title":"Test 141","slug":"test141","icon":"shop-iconV2.svg","filters":"Test1"},{"title":"Test 145","slug":"test145","icon":"shop-iconV2.svg","filters":"Test5, Test6"},{"title":"Test 146","slug":"test146","icon":"shop-iconV2.svg","filters":"Test1"},{"title":"Test 147","slug":"test147","icon":"shop-iconV2.svg","filters":"Test2"},{"title":"Test 148","slug":"test148","icon":"shop-iconV2.svg","filters":"Test3"},{"title":"Test 149","slug":"test149","icon":"shop-iconV2.svg","filters":"Test 3, Test4"},{"title":"Test 150","slug":"test150","icon":"shop-iconV2.svg","filters":"Test3"},{"title":"Test 151","slug":"test151","icon":"shop-iconV2.svg","filters":"Test3"},{"title":"Test 152","slug":"test152","icon":"shop-iconV2.svg","filters":"Test1"},{"title":"Test 153","slug":"test153","icon":"shop-iconV2.svg","filters":"Test1"},{"title":"Test 157","slug":"test157","icon":"shop-iconV2.svg","filters":"Test5, Test6"},{"title":"Test 158","slug":"test158","icon":"shop-iconV2.svg","filters":"Test1"},{"title":"Test 159","slug":"test159","icon":"shop-iconV2.svg","filters":"Test2"}],"pageInfo":{"pageCount":11,"hasPreviousPage":true,"hasNextPage":true,"currentPage":6},"totalCount":216}},"pageContext":{"slug":"category1","limit":20,"skip":100,"collectionType":"categor","paginatePostsPage":false,"basePath":"/","services":{"algolia":false,"mailchimp":false,"disqus":false,"graphComment":false,"facebookComment":false},"siteUrl":null,"mobileMenu":{"title":"Topics","items":[{"name":"Advertising","slug":"/category/advertising/"},{"name":"Innovation","slug":"/category/innovation/"},{"name":"Management","slug":"/category/management/"},{"name":"Case Studies","slug":"/category/case-studies/"}]},"darkMode":true,"includeExcerpt":true,"includeTimeToRead":true,"includeTableOfContents":true,"imageQuality":75}},"staticQueryHashes":["1992822086","2103122295","2409295108","2899663612"]}