{"componentChunkName":"component---packages-blog-gatsby-blog-core-src-templates-tags-gs-js","path":"/cars/page/4/","result":{"data":{"collectionInfo":null,"posts":{"nodes":[{"title":"Test 62","slug":"test62","icon":"shop-iconV2.svg","filters":"Test1"},{"title":"Test 63","slug":"test63","icon":"shop-iconV2.svg","filters":"Test2"},{"title":"Test 64","slug":"test64","icon":"shop-iconV2.svg","filters":"Test3"},{"title":"Test 65","slug":"test65","icon":"shop-iconV2.svg","filters":"Test 3, Test4"},{"title":"Test 66","slug":"test66","icon":"shop-iconV2.svg","filters":"Test3"},{"title":"Test 67","slug":"test67","icon":"shop-iconV2.svg","filters":"Test3"},{"title":"Test 68","slug":"test68","icon":"shop-iconV2.svg","filters":"Test1"},{"title":"Test 69","slug":"test69","icon":"shop-iconV2.svg","filters":"Test1"},{"title":"Test 70","slug":"test70","icon":"shop-iconV2.svg","filters":"Test2"},{"title":"Test 71","slug":"test71","icon":"shop-iconV2.svg","filters":"Test3, Test4"},{"title":"Test 72","slug":"test72","icon":"shop-iconV2.svg","filters":"Test5, Test6"},{"title":"Test 73","slug":"test73","icon":"shop-iconV2.svg","filters":"Test5, Test6"},{"title":"Test 74","slug":"test74","icon":"shop-iconV2.svg","filters":"Test1"},{"title":"Test 75","slug":"test75","icon":"shop-iconV2.svg","filters":"Test2"},{"title":"Test 76","slug":"test76","icon":"shop-iconV2.svg","filters":"Test3"},{"title":"Test 77","slug":"test77","icon":"shop-iconV2.svg","filters":"Test 3, Test4"},{"title":"Test 78","slug":"test78","icon":"shop-iconV2.svg","filters":"Test3"},{"title":"Test 79","slug":"test79","icon":"shop-iconV2.svg","filters":"Test3"},{"title":"Test 80","slug":"test80","icon":"shop-iconV2.svg","filters":"Test1"},{"title":"Test 81","slug":"test81","icon":"shop-iconV2.svg","filters":"Test1"}],"pageInfo":{"pageCount":15,"hasPreviousPage":true,"hasNextPage":true,"currentPage":4},"totalCount":287}},"pageContext":{"slug":"cars","limit":20,"skip":60,"collectionType":"tag","paginatePostsPage":false,"basePath":"/","services":{"algolia":false,"mailchimp":false,"disqus":false,"graphComment":false,"facebookComment":false},"siteUrl":null,"mobileMenu":{"title":"Topics","items":[{"name":"Advertising","slug":"/category/advertising/"},{"name":"Innovation","slug":"/category/innovation/"},{"name":"Management","slug":"/category/management/"},{"name":"Case Studies","slug":"/category/case-studies/"}]},"darkMode":true,"includeExcerpt":true,"includeTimeToRead":true,"includeTableOfContents":true,"imageQuality":75}},"staticQueryHashes":["1992822086","2103122295","2409295108","2899663612"]}