{"componentChunkName":"component---packages-blog-gatsby-blog-core-src-templates-categories-gs-js","path":"/category3/page/2/","result":{"data":{"collectionInfo":{"id":"e1ab6969-0695-572a-b2e6-54c013a0745a","name":"Category 3","slug":"category3","description":"Lorem ipsum dolor sit amet, consectetur adipiscing elit, sed do eiusmod tempor incididunt ut labore."},"posts":{"nodes":[{"title":"Test 252","slug":"test252","icon":"shop-iconV2.svg","filters":"Test5, Test6"},{"title":"Test 264","slug":"test264","icon":"shop-iconV2.svg","filters":"Test5, Test6"},{"title":"Test 276","slug":"test276","icon":"shop-iconV2.svg","filters":"Test5, Test6"},{"title":"Test 288","slug":"test288","icon":"shop-iconV2.svg","filters":"Test5, Test6"}],"pageInfo":{"pageCount":2,"hasPreviousPage":true,"hasNextPage":false,"currentPage":2},"totalCount":24}},"pageContext":{"slug":"category3","limit":20,"skip":20,"collectionType":"categor","paginatePostsPage":false,"basePath":"/","services":{"algolia":false,"mailchimp":false,"disqus":false,"graphComment":false,"facebookComment":false},"siteUrl":null,"mobileMenu":{"title":"Topics","items":[{"name":"Advertising","slug":"/category/advertising/"},{"name":"Innovation","slug":"/category/innovation/"},{"name":"Management","slug":"/category/management/"},{"name":"Case Studies","slug":"/category/case-studies/"}]},"darkMode":true,"includeExcerpt":true,"includeTimeToRead":true,"includeTableOfContents":true,"imageQuality":75}},"staticQueryHashes":["1992822086","2103122295","2409295108","2899663612"]}