{"componentChunkName":"component---packages-blog-gatsby-blog-core-src-templates-author-gs-js","path":"/john_doe/page/2/","result":{"data":{"collectionInfo":{"id":"eb33d9e2-4672-541d-acc6-ddc5c5f95b5b","slug":"john_doe","name":"John Doe","photo":"john-doe.jpg","description":"Sed commodo, est quis maximus fermentum, massa ipsum euismod neque, in varius risus tellus quis lacus. Sed ac bibendum odio.","expertise":"JavaScript, React, Nodejs","position":"Web Developer","instagram":"https://instagram.com/","twitter":"https://twitter.com/","website":"https://www.google.com/"},"posts":{"nodes":[{"title":"Test 61","slug":"test61","icon":"shop-iconV2.svg","filters":"Test5, Test6"},{"title":"Test 62","slug":"test62","icon":"shop-iconV2.svg","filters":"Test1"},{"title":"Test 65","slug":"test65","icon":"shop-iconV2.svg","filters":"Test 3, Test4"},{"title":"Test 70","slug":"test70","icon":"shop-iconV2.svg","filters":"Test2"},{"title":"Test 73","slug":"test73","icon":"shop-iconV2.svg","filters":"Test5, Test6"},{"title":"Test 74","slug":"test74","icon":"shop-iconV2.svg","filters":"Test1"},{"title":"Test 77","slug":"test77","icon":"shop-iconV2.svg","filters":"Test 3, Test4"},{"title":"Test 82","slug":"test82","icon":"shop-iconV2.svg","filters":"Test2"},{"title":"Test 85","slug":"test85","icon":"shop-iconV2.svg","filters":"Test5, Test6"},{"title":"Test 86","slug":"test86","icon":"shop-iconV2.svg","filters":"Test1"},{"title":"Test 89","slug":"test89","icon":"shop-iconV2.svg","filters":"Test 3, Test4"},{"title":"Test 94","slug":"test94","icon":"shop-iconV2.svg","filters":"Test2"},{"title":"Test 97","slug":"test97","icon":"shop-iconV2.svg","filters":"Test5, Test6"},{"title":"Test 98","slug":"test98","icon":"shop-iconV2.svg","filters":"Test1"},{"title":"Test 101","slug":"test101","icon":"shop-iconV2.svg","filters":"Test 3, Test4"},{"title":"Test 106","slug":"test106","icon":"shop-iconV2.svg","filters":"Test2"},{"title":"Test 109","slug":"test109","icon":"shop-iconV2.svg","filters":"Test5, Test6"},{"title":"Test 110","slug":"test110","icon":"shop-iconV2.svg","filters":"Test1"},{"title":"Test 113","slug":"test113","icon":"shop-iconV2.svg","filters":"Test 3, Test4"},{"title":"Test 118","slug":"test118","icon":"shop-iconV2.svg","filters":"Test2"}],"pageInfo":{"pageCount":5,"hasPreviousPage":true,"hasNextPage":true,"currentPage":2},"totalCount":96}},"pageContext":{"slug":"john_doe","limit":20,"skip":20,"collectionType":"autho","paginatePostsPage":false,"basePath":"/","services":{"algolia":false,"mailchimp":false,"disqus":false,"graphComment":false,"facebookComment":false},"siteUrl":null,"mobileMenu":{"title":"Topics","items":[{"name":"Advertising","slug":"/category/advertising/"},{"name":"Innovation","slug":"/category/innovation/"},{"name":"Management","slug":"/category/management/"},{"name":"Case Studies","slug":"/category/case-studies/"}]},"darkMode":true,"includeExcerpt":true,"includeTimeToRead":true,"includeTableOfContents":true,"imageQuality":75}},"staticQueryHashes":["1992822086","2103122295","2409295108","2899663612"]}