{"componentChunkName":"component---packages-blog-gatsby-blog-core-src-templates-tags-gs-js","path":"/agency/page/14/","result":{"data":{"collectionInfo":{"name":"#agency","slug":"agency"},"posts":{"nodes":[{"title":"Test 261","slug":"test261","icon":"shop-iconV2.svg","filters":"Test1"},{"title":"Test 262","slug":"test262","icon":"shop-iconV2.svg","filters":"Test2"},{"title":"Test 263","slug":"test263","icon":"shop-iconV2.svg","filters":"Test3, Test4"},{"title":"Test 264","slug":"test264","icon":"shop-iconV2.svg","filters":"Test5, Test6"},{"title":"Test 265","slug":"test265","icon":"shop-iconV2.svg","filters":"Test5, Test6"},{"title":"Test 266","slug":"test266","icon":"shop-iconV2.svg","filters":"Test1"},{"title":"Test 267","slug":"test267","icon":"shop-iconV2.svg","filters":"Test2"},{"title":"Test 268","slug":"test268","icon":"shop-iconV2.svg","filters":"Test3"},{"title":"Test 269","slug":"test269","icon":"shop-iconV2.svg","filters":"Test 3, Test4"},{"title":"Test 270","slug":"test270","icon":"shop-iconV2.svg","filters":"Test3"},{"title":"Test 271","slug":"test271","icon":"shop-iconV2.svg","filters":"Test3"},{"title":"Test 272","slug":"test272","icon":"shop-iconV2.svg","filters":"Test1"},{"title":"Test 273","slug":"test273","icon":"shop-iconV2.svg","filters":"Test1"},{"title":"Test 274","slug":"test274","icon":"shop-iconV2.svg","filters":"Test2"},{"title":"Test 275","slug":"test275","icon":"shop-iconV2.svg","filters":"Test3, Test4"},{"title":"Test 276","slug":"test276","icon":"shop-iconV2.svg","filters":"Test5, Test6"},{"title":"Test 277","slug":"test277","icon":"shop-iconV2.svg","filters":"Test5, Test6"},{"title":"Test 278","slug":"test278","icon":"shop-iconV2.svg","filters":"Test1"},{"title":"Test 279","slug":"test279","icon":"shop-iconV2.svg","filters":"Test2"},{"title":"Test 280","slug":"test280","icon":"shop-iconV2.svg","filters":"Test3"}],"pageInfo":{"pageCount":15,"hasPreviousPage":true,"hasNextPage":true,"currentPage":14},"totalCount":288}},"pageContext":{"slug":"agency","limit":20,"skip":260,"collectionType":"tag","paginatePostsPage":false,"basePath":"/","services":{"algolia":false,"mailchimp":false,"disqus":false,"graphComment":false,"facebookComment":false},"siteUrl":null,"mobileMenu":{"title":"Topics","items":[{"name":"Advertising","slug":"/category/advertising/"},{"name":"Innovation","slug":"/category/innovation/"},{"name":"Management","slug":"/category/management/"},{"name":"Case Studies","slug":"/category/case-studies/"}]},"darkMode":true,"includeExcerpt":true,"includeTimeToRead":true,"includeTableOfContents":true,"imageQuality":75}},"staticQueryHashes":["1992822086","2103122295","2409295108","2899663612"]}