{"componentChunkName":"component---packages-blog-gatsby-blog-core-src-templates-author-gs-js","path":"/jane_smith/page/4/","result":{"data":{"collectionInfo":{"id":"78ac3c44-6316-51dd-8ff3-b75d84444402","slug":"jane_smith","name":"Jane Smith","photo":"jane-smith.jpg","description":"Sed commodo, est quis maximus fermentum, massa ipsum euismod neque, in varius risus tellus quis lacus. Sed ac bibendum odio.","expertise":"Advertising, Bussiness, Designer","position":"Creative Designer","instagram":"https://instagram.com/","twitter":"https://twitter.com/","website":"https://www.google.com/"},"posts":{"nodes":[{"title":"Test 92","slug":"test92","icon":"shop-iconV2.svg","filters":"Test1"},{"title":"Test 93","slug":"test93","icon":"shop-iconV2.svg","filters":"Test1"},{"title":"Test 95","slug":"test95","icon":"shop-iconV2.svg","filters":"Test3, Test4"},{"title":"Test 96","slug":"test96","icon":"shop-iconV2.svg","filters":"Test5, Test6"},{"title":"Test 99","slug":"test99","icon":"shop-iconV2.svg","filters":"Test2"},{"title":"Test 100","slug":"test100","icon":"shop-iconV2.svg","filters":"Test3"},{"title":"Test 102","slug":"test102","icon":"shop-iconV2.svg","filters":"Test3"},{"title":"Test 103","slug":"test103","icon":"shop-iconV2.svg","filters":"Test3"},{"title":"Test 104","slug":"test104","icon":"shop-iconV2.svg","filters":"Test1"},{"title":"Test 105","slug":"test105","icon":"shop-iconV2.svg","filters":"Test1"},{"title":"Test 107","slug":"test107","icon":"shop-iconV2.svg","filters":"Test3, Test4"},{"title":"Test 108","slug":"test108","icon":"shop-iconV2.svg","filters":"Test5, Test6"},{"title":"Test 111","slug":"test111","icon":"shop-iconV2.svg","filters":"Test2"},{"title":"Test 112","slug":"test112","icon":"shop-iconV2.svg","filters":"Test3"},{"title":"Test 114","slug":"test114","icon":"shop-iconV2.svg","filters":"Test3"},{"title":"Test 115","slug":"test115","icon":"shop-iconV2.svg","filters":"Test3"},{"title":"Test 116","slug":"test116","icon":"shop-iconV2.svg","filters":"Test1"},{"title":"Test 117","slug":"test117","icon":"shop-iconV2.svg","filters":"Test1"},{"title":"Test 119","slug":"test119","icon":"shop-iconV2.svg","filters":"Test3, Test4"},{"title":"Test 120","slug":"test120","icon":"shop-iconV2.svg","filters":"Test5, Test6"}],"pageInfo":{"pageCount":10,"hasPreviousPage":true,"hasNextPage":true,"currentPage":4},"totalCount":192}},"pageContext":{"slug":"jane_smith","limit":20,"skip":60,"collectionType":"autho","paginatePostsPage":false,"basePath":"/","services":{"algolia":false,"mailchimp":false,"disqus":false,"graphComment":false,"facebookComment":false},"siteUrl":null,"mobileMenu":{"title":"Topics","items":[{"name":"Advertising","slug":"/category/advertising/"},{"name":"Innovation","slug":"/category/innovation/"},{"name":"Management","slug":"/category/management/"},{"name":"Case Studies","slug":"/category/case-studies/"}]},"darkMode":true,"includeExcerpt":true,"includeTimeToRead":true,"includeTableOfContents":true,"imageQuality":75}},"staticQueryHashes":["1992822086","2103122295","2409295108","2899663612"]}