{"componentChunkName":"component---packages-blog-gatsby-blog-core-src-templates-tags-gs-js","path":"/cars/page/6/","result":{"data":{"collectionInfo":null,"posts":{"nodes":[{"title":"Test 102","slug":"test102","icon":"shop-iconV2.svg","filters":"Test3"},{"title":"Test 103","slug":"test103","icon":"shop-iconV2.svg","filters":"Test3"},{"title":"Test 104","slug":"test104","icon":"shop-iconV2.svg","filters":"Test1"},{"title":"Test 105","slug":"test105","icon":"shop-iconV2.svg","filters":"Test1"},{"title":"Test 106","slug":"test106","icon":"shop-iconV2.svg","filters":"Test2"},{"title":"Test 107","slug":"test107","icon":"shop-iconV2.svg","filters":"Test3, Test4"},{"title":"Test 108","slug":"test108","icon":"shop-iconV2.svg","filters":"Test5, Test6"},{"title":"Test 109","slug":"test109","icon":"shop-iconV2.svg","filters":"Test5, Test6"},{"title":"Test 110","slug":"test110","icon":"shop-iconV2.svg","filters":"Test1"},{"title":"Test 111","slug":"test111","icon":"shop-iconV2.svg","filters":"Test2"},{"title":"Test 112","slug":"test112","icon":"shop-iconV2.svg","filters":"Test3"},{"title":"Test 113","slug":"test113","icon":"shop-iconV2.svg","filters":"Test 3, Test4"},{"title":"Test 114","slug":"test114","icon":"shop-iconV2.svg","filters":"Test3"},{"title":"Test 115","slug":"test115","icon":"shop-iconV2.svg","filters":"Test3"},{"title":"Test 116","slug":"test116","icon":"shop-iconV2.svg","filters":"Test1"},{"title":"Test 117","slug":"test117","icon":"shop-iconV2.svg","filters":"Test1"},{"title":"Test 118","slug":"test118","icon":"shop-iconV2.svg","filters":"Test2"},{"title":"Test 119","slug":"test119","icon":"shop-iconV2.svg","filters":"Test3, Test4"},{"title":"Test 120","slug":"test120","icon":"shop-iconV2.svg","filters":"Test5, Test6"},{"title":"Test 121","slug":"test121","icon":"shop-iconV2.svg","filters":"Test5, Test6"}],"pageInfo":{"pageCount":15,"hasPreviousPage":true,"hasNextPage":true,"currentPage":6},"totalCount":287}},"pageContext":{"slug":"cars","limit":20,"skip":100,"collectionType":"tag","paginatePostsPage":false,"basePath":"/","services":{"algolia":false,"mailchimp":false,"disqus":false,"graphComment":false,"facebookComment":false},"siteUrl":null,"mobileMenu":{"title":"Topics","items":[{"name":"Advertising","slug":"/category/advertising/"},{"name":"Innovation","slug":"/category/innovation/"},{"name":"Management","slug":"/category/management/"},{"name":"Case Studies","slug":"/category/case-studies/"}]},"darkMode":true,"includeExcerpt":true,"includeTimeToRead":true,"includeTableOfContents":true,"imageQuality":75}},"staticQueryHashes":["1992822086","2103122295","2409295108","2899663612"]}