{"componentChunkName":"component---packages-blog-gatsby-blog-core-src-templates-categories-gs-js","path":"/category3/","result":{"data":{"collectionInfo":{"id":"e1ab6969-0695-572a-b2e6-54c013a0745a","name":"Category 3","slug":"category3","description":"Lorem ipsum dolor sit amet, consectetur adipiscing elit, sed do eiusmod tempor incididunt ut labore."},"posts":{"nodes":[{"title":"Test 12","slug":"test12","icon":"shop-iconV2.svg","filters":"Test5, Test6"},{"title":"Test 24","slug":"test24","icon":"shop-iconV2.svg","filters":"Test5, Test6"},{"title":"Test 36","slug":"test36","icon":"shop-iconV2.svg","filters":"Test5, Test6"},{"title":"Test 48","slug":"test48","icon":"shop-iconV2.svg","filters":"Test5, Test6"},{"title":"Test 60","slug":"test60","icon":"shop-iconV2.svg","filters":"Test5, Test6"},{"title":"Test 72","slug":"test72","icon":"shop-iconV2.svg","filters":"Test5, Test6"},{"title":"Test 84","slug":"test84","icon":"shop-iconV2.svg","filters":"Test5, Test6"},{"title":"Test 96","slug":"test96","icon":"shop-iconV2.svg","filters":"Test5, Test6"},{"title":"Test 108","slug":"test108","icon":"shop-iconV2.svg","filters":"Test5, Test6"},{"title":"Test 120","slug":"test120","icon":"shop-iconV2.svg","filters":"Test5, Test6"},{"title":"Test 132","slug":"test132","icon":"shop-iconV2.svg","filters":"Test5, Test6"},{"title":"Test 144","slug":"test144","icon":"shop-iconV2.svg","filters":"Test5, Test6"},{"title":"Test 156","slug":"test156","icon":"shop-iconV2.svg","filters":"Test5, Test6"},{"title":"Test 168","slug":"test168","icon":"shop-iconV2.svg","filters":"Test5, Test6"},{"title":"Test 180","slug":"test180","icon":"shop-iconV2.svg","filters":"Test5, Test6"},{"title":"Test 192","slug":"test192","icon":"shop-iconV2.svg","filters":"Test5, Test6"},{"title":"Test 204","slug":"test204","icon":"shop-iconV2.svg","filters":"Test5, Test6"},{"title":"Test 216","slug":"test216","icon":"shop-iconV2.svg","filters":"Test5, Test6"},{"title":"Test 228","slug":"test228","icon":"shop-iconV2.svg","filters":"Test5, Test6"},{"title":"Test 240","slug":"test240","icon":"shop-iconV2.svg","filters":"Test5, Test6"}],"pageInfo":{"pageCount":2,"hasPreviousPage":false,"hasNextPage":true,"currentPage":1},"totalCount":24}},"pageContext":{"slug":"category3","limit":20,"skip":0,"collectionType":"categor","paginatePostsPage":false,"basePath":"/","services":{"algolia":false,"mailchimp":false,"disqus":false,"graphComment":false,"facebookComment":false},"siteUrl":null,"mobileMenu":{"title":"Topics","items":[{"name":"Advertising","slug":"/category/advertising/"},{"name":"Innovation","slug":"/category/innovation/"},{"name":"Management","slug":"/category/management/"},{"name":"Case Studies","slug":"/category/case-studies/"}]},"darkMode":true,"includeExcerpt":true,"includeTimeToRead":true,"includeTableOfContents":true,"imageQuality":75}},"staticQueryHashes":["1992822086","2103122295","2409295108","2899663612"]}