{"componentChunkName":"component---packages-blog-gatsby-blog-core-src-templates-categories-gs-js","path":"/category2/page/3/","result":{"data":{"collectionInfo":{"id":"5af2e4fd-86a2-50bf-b8a6-fd78aa5aa811","name":"Category 2","slug":"category2","description":"Lorem ipsum dolor sit amet, consectetur adipiscing elit, sed do eiusmod tempor incididunt ut labore."},"posts":{"nodes":[{"title":"Test 250","slug":"test250","icon":"shop-iconV2.svg","filters":"Test2"},{"title":"Test 251","slug":"test251","icon":"shop-iconV2.svg","filters":"Test3, Test4"},{"title":"Test 262","slug":"test262","icon":"shop-iconV2.svg","filters":"Test2"},{"title":"Test 263","slug":"test263","icon":"shop-iconV2.svg","filters":"Test3, Test4"},{"title":"Test 274","slug":"test274","icon":"shop-iconV2.svg","filters":"Test2"},{"title":"Test 275","slug":"test275","icon":"shop-iconV2.svg","filters":"Test3, Test4"},{"title":"Test 286","slug":"test286","icon":"shop-iconV2.svg","filters":"Test2"},{"title":"Test 287","slug":"test287","icon":"shop-iconV2.svg","filters":"Test3, Test4"}],"pageInfo":{"pageCount":3,"hasPreviousPage":true,"hasNextPage":false,"currentPage":3},"totalCount":48}},"pageContext":{"slug":"category2","limit":20,"skip":40,"collectionType":"categor","paginatePostsPage":false,"basePath":"/","services":{"algolia":false,"mailchimp":false,"disqus":false,"graphComment":false,"facebookComment":false},"siteUrl":null,"mobileMenu":{"title":"Topics","items":[{"name":"Advertising","slug":"/category/advertising/"},{"name":"Innovation","slug":"/category/innovation/"},{"name":"Management","slug":"/category/management/"},{"name":"Case Studies","slug":"/category/case-studies/"}]},"darkMode":true,"includeExcerpt":true,"includeTimeToRead":true,"includeTableOfContents":true,"imageQuality":75}},"staticQueryHashes":["1992822086","2103122295","2409295108","2899663612"]}