{"componentChunkName":"component---packages-blog-gatsby-blog-core-src-templates-tags-gs-js","path":"/cars/page/3/","result":{"data":{"collectionInfo":null,"posts":{"nodes":[{"title":"Test 42","slug":"test42","icon":"shop-iconV2.svg","filters":"Test3"},{"title":"Test 43","slug":"test43","icon":"shop-iconV2.svg","filters":"Test3"},{"title":"Test 44","slug":"test44","icon":"shop-iconV2.svg","filters":"Test1"},{"title":"Test 45","slug":"test45","icon":"shop-iconV2.svg","filters":"Test1"},{"title":"Test 46","slug":"test46","icon":"shop-iconV2.svg","filters":"Test2"},{"title":"Test 47","slug":"test47","icon":"shop-iconV2.svg","filters":"Test3, Test4"},{"title":"Test 48","slug":"test48","icon":"shop-iconV2.svg","filters":"Test5, Test6"},{"title":"Test 49","slug":"test49","icon":"shop-iconV2.svg","filters":"Test5, Test6"},{"title":"Test 50","slug":"test50","icon":"shop-iconV2.svg","filters":"Test1"},{"title":"Test 51","slug":"test51","icon":"shop-iconV2.svg","filters":"Test2"},{"title":"Test 52","slug":"test52","icon":"shop-iconV2.svg","filters":"Test3"},{"title":"Test 53","slug":"test53","icon":"shop-iconV2.svg","filters":"Test 3, Test4"},{"title":"Test 54","slug":"test54","icon":"shop-iconV2.svg","filters":"Test3"},{"title":"Test 55","slug":"test55","icon":"shop-iconV2.svg","filters":"Test3"},{"title":"Test 56","slug":"test56","icon":"shop-iconV2.svg","filters":"Test1"},{"title":"Test 57","slug":"test57","icon":"shop-iconV2.svg","filters":"Test1"},{"title":"Test 58","slug":"test58","icon":"shop-iconV2.svg","filters":"Test2"},{"title":"Test 59","slug":"test59","icon":"shop-iconV2.svg","filters":"Test3, Test4"},{"title":"Test 60","slug":"test60","icon":"shop-iconV2.svg","filters":"Test5, Test6"},{"title":"Test 61","slug":"test61","icon":"shop-iconV2.svg","filters":"Test5, Test6"}],"pageInfo":{"pageCount":15,"hasPreviousPage":true,"hasNextPage":true,"currentPage":3},"totalCount":287}},"pageContext":{"slug":"cars","limit":20,"skip":40,"collectionType":"tag","paginatePostsPage":false,"basePath":"/","services":{"algolia":false,"mailchimp":false,"disqus":false,"graphComment":false,"facebookComment":false},"siteUrl":null,"mobileMenu":{"title":"Topics","items":[{"name":"Advertising","slug":"/category/advertising/"},{"name":"Innovation","slug":"/category/innovation/"},{"name":"Management","slug":"/category/management/"},{"name":"Case Studies","slug":"/category/case-studies/"}]},"darkMode":true,"includeExcerpt":true,"includeTimeToRead":true,"includeTableOfContents":true,"imageQuality":75}},"staticQueryHashes":["1992822086","2103122295","2409295108","2899663612"]}