{"componentChunkName":"component---packages-blog-gatsby-blog-core-src-templates-tags-gs-js","path":"/cars/page/8/","result":{"data":{"collectionInfo":null,"posts":{"nodes":[{"title":"Test 142","slug":"test142","icon":"shop-iconV2.svg","filters":"Test2"},{"title":"Test 143","slug":"test143","icon":"shop-iconV2.svg","filters":"Test3, Test4"},{"title":"Test 144","slug":"test144","icon":"shop-iconV2.svg","filters":"Test5, Test6"},{"title":"Test 145","slug":"test145","icon":"shop-iconV2.svg","filters":"Test5, Test6"},{"title":"Test 146","slug":"test146","icon":"shop-iconV2.svg","filters":"Test1"},{"title":"Test 147","slug":"test147","icon":"shop-iconV2.svg","filters":"Test2"},{"title":"Test 148","slug":"test148","icon":"shop-iconV2.svg","filters":"Test3"},{"title":"Test 149","slug":"test149","icon":"shop-iconV2.svg","filters":"Test 3, Test4"},{"title":"Test 150","slug":"test150","icon":"shop-iconV2.svg","filters":"Test3"},{"title":"Test 151","slug":"test151","icon":"shop-iconV2.svg","filters":"Test3"},{"title":"Test 152","slug":"test152","icon":"shop-iconV2.svg","filters":"Test1"},{"title":"Test 153","slug":"test153","icon":"shop-iconV2.svg","filters":"Test1"},{"title":"Test 154","slug":"test154","icon":"shop-iconV2.svg","filters":"Test2"},{"title":"Test 155","slug":"test155","icon":"shop-iconV2.svg","filters":"Test3, Test4"},{"title":"Test 156","slug":"test156","icon":"shop-iconV2.svg","filters":"Test5, Test6"},{"title":"Test 157","slug":"test157","icon":"shop-iconV2.svg","filters":"Test5, Test6"},{"title":"Test 158","slug":"test158","icon":"shop-iconV2.svg","filters":"Test1"},{"title":"Test 159","slug":"test159","icon":"shop-iconV2.svg","filters":"Test2"},{"title":"Test 160","slug":"test160","icon":"shop-iconV2.svg","filters":"Test3"},{"title":"Test 161","slug":"test161","icon":"shop-iconV2.svg","filters":"Test 3, Test4"}],"pageInfo":{"pageCount":15,"hasPreviousPage":true,"hasNextPage":true,"currentPage":8},"totalCount":287}},"pageContext":{"slug":"cars","limit":20,"skip":140,"collectionType":"tag","paginatePostsPage":false,"basePath":"/","services":{"algolia":false,"mailchimp":false,"disqus":false,"graphComment":false,"facebookComment":false},"siteUrl":null,"mobileMenu":{"title":"Topics","items":[{"name":"Advertising","slug":"/category/advertising/"},{"name":"Innovation","slug":"/category/innovation/"},{"name":"Management","slug":"/category/management/"},{"name":"Case Studies","slug":"/category/case-studies/"}]},"darkMode":true,"includeExcerpt":true,"includeTimeToRead":true,"includeTableOfContents":true,"imageQuality":75}},"staticQueryHashes":["1992822086","2103122295","2409295108","2899663612"]}