{"componentChunkName":"component---packages-blog-gatsby-blog-core-src-templates-categories-gs-js","path":"/category1/page/5/","result":{"data":{"collectionInfo":{"id":"adf5d943-cf7c-560d-8bcc-180ad42e98b0","name":"Category 1","slug":"category1","description":"Lorem ipsum dolor sit amet, consectetur adipiscing elit, sed do eiusmod tempor incididunt ut labore."},"posts":{"nodes":[{"title":"Test 105","slug":"test105","icon":"shop-iconV2.svg","filters":"Test1"},{"title":"Test 109","slug":"test109","icon":"shop-iconV2.svg","filters":"Test5, Test6"},{"title":"Test 110","slug":"test110","icon":"shop-iconV2.svg","filters":"Test1"},{"title":"Test 111","slug":"test111","icon":"shop-iconV2.svg","filters":"Test2"},{"title":"Test 112","slug":"test112","icon":"shop-iconV2.svg","filters":"Test3"},{"title":"Test 113","slug":"test113","icon":"shop-iconV2.svg","filters":"Test 3, Test4"},{"title":"Test 114","slug":"test114","icon":"shop-iconV2.svg","filters":"Test3"},{"title":"Test 115","slug":"test115","icon":"shop-iconV2.svg","filters":"Test3"},{"title":"Test 116","slug":"test116","icon":"shop-iconV2.svg","filters":"Test1"},{"title":"Test 117","slug":"test117","icon":"shop-iconV2.svg","filters":"Test1"},{"title":"Test 121","slug":"test121","icon":"shop-iconV2.svg","filters":"Test5, Test6"},{"title":"Test 122","slug":"test122","icon":"shop-iconV2.svg","filters":"Test1"},{"title":"Test 123","slug":"test123","icon":"shop-iconV2.svg","filters":"Test2"},{"title":"Test 124","slug":"test124","icon":"shop-iconV2.svg","filters":"Test3"},{"title":"Test 125","slug":"test125","icon":"shop-iconV2.svg","filters":"Test 3, Test4"},{"title":"Test 126","slug":"test126","icon":"shop-iconV2.svg","filters":"Test3"},{"title":"Test 127","slug":"test127","icon":"shop-iconV2.svg","filters":"Test3"},{"title":"Test 128","slug":"test128","icon":"shop-iconV2.svg","filters":"Test1"},{"title":"Test 129","slug":"test129","icon":"shop-iconV2.svg","filters":"Test1"},{"title":"Test 133","slug":"test133","icon":"shop-iconV2.svg","filters":"Test5, Test6"}],"pageInfo":{"pageCount":11,"hasPreviousPage":true,"hasNextPage":true,"currentPage":5},"totalCount":216}},"pageContext":{"slug":"category1","limit":20,"skip":80,"collectionType":"categor","paginatePostsPage":false,"basePath":"/","services":{"algolia":false,"mailchimp":false,"disqus":false,"graphComment":false,"facebookComment":false},"siteUrl":null,"mobileMenu":{"title":"Topics","items":[{"name":"Advertising","slug":"/category/advertising/"},{"name":"Innovation","slug":"/category/innovation/"},{"name":"Management","slug":"/category/management/"},{"name":"Case Studies","slug":"/category/case-studies/"}]},"darkMode":true,"includeExcerpt":true,"includeTimeToRead":true,"includeTableOfContents":true,"imageQuality":75}},"staticQueryHashes":["1992822086","2103122295","2409295108","2899663612"]}