{"componentChunkName":"component---packages-blog-gatsby-blog-core-src-templates-author-gs-js","path":"/jane_smith/page/7/","result":{"data":{"collectionInfo":{"id":"78ac3c44-6316-51dd-8ff3-b75d84444402","slug":"jane_smith","name":"Jane Smith","photo":"jane-smith.jpg","description":"Sed commodo, est quis maximus fermentum, massa ipsum euismod neque, in varius risus tellus quis lacus. Sed ac bibendum odio.","expertise":"Advertising, Bussiness, Designer","position":"Creative Designer","instagram":"https://instagram.com/","twitter":"https://twitter.com/","website":"https://www.google.com/"},"posts":{"nodes":[{"title":"Test 183","slug":"test183","icon":"shop-iconV2.svg","filters":"Test2"},{"title":"Test 184","slug":"test184","icon":"shop-iconV2.svg","filters":"Test3"},{"title":"Test 186","slug":"test186","icon":"shop-iconV2.svg","filters":"Test3"},{"title":"Test 187","slug":"test187","icon":"shop-iconV2.svg","filters":"Test3"},{"title":"Test 188","slug":"test188","icon":"shop-iconV2.svg","filters":"Test1"},{"title":"Test 189","slug":"test189","icon":"shop-iconV2.svg","filters":"Test1"},{"title":"Test 191","slug":"test191","icon":"shop-iconV2.svg","filters":"Test3, Test4"},{"title":"Test 192","slug":"test192","icon":"shop-iconV2.svg","filters":"Test5, Test6"},{"title":"Test 195","slug":"test195","icon":"shop-iconV2.svg","filters":"Test2"},{"title":"Test 196","slug":"test196","icon":"shop-iconV2.svg","filters":"Test3"},{"title":"Test 198","slug":"test198","icon":"shop-iconV2.svg","filters":"Test3"},{"title":"Test 199","slug":"test199","icon":"shop-iconV2.svg","filters":"Test3"},{"title":"Test 200","slug":"test200","icon":"shop-iconV2.svg","filters":"Test1"},{"title":"Test 201","slug":"test201","icon":"shop-iconV2.svg","filters":"Test1"},{"title":"Test 203","slug":"test203","icon":"shop-iconV2.svg","filters":"Test3, Test4"},{"title":"Test 204","slug":"test204","icon":"shop-iconV2.svg","filters":"Test5, Test6"},{"title":"Test 207","slug":"test207","icon":"shop-iconV2.svg","filters":"Test2"},{"title":"Test 208","slug":"test208","icon":"shop-iconV2.svg","filters":"Test3"},{"title":"Test 210","slug":"test210","icon":"shop-iconV2.svg","filters":"Test3"},{"title":"Test 211","slug":"test211","icon":"shop-iconV2.svg","filters":"Test3"}],"pageInfo":{"pageCount":10,"hasPreviousPage":true,"hasNextPage":true,"currentPage":7},"totalCount":192}},"pageContext":{"slug":"jane_smith","limit":20,"skip":120,"collectionType":"autho","paginatePostsPage":false,"basePath":"/","services":{"algolia":false,"mailchimp":false,"disqus":false,"graphComment":false,"facebookComment":false},"siteUrl":null,"mobileMenu":{"title":"Topics","items":[{"name":"Advertising","slug":"/category/advertising/"},{"name":"Innovation","slug":"/category/innovation/"},{"name":"Management","slug":"/category/management/"},{"name":"Case Studies","slug":"/category/case-studies/"}]},"darkMode":true,"includeExcerpt":true,"includeTimeToRead":true,"includeTableOfContents":true,"imageQuality":75}},"staticQueryHashes":["1992822086","2103122295","2409295108","2899663612"]}