{"componentChunkName":"component---packages-blog-gatsby-blog-core-src-templates-tags-gs-js","path":"/cars/page/12/","result":{"data":{"collectionInfo":null,"posts":{"nodes":[{"title":"Test 222","slug":"test222","icon":"shop-iconV2.svg","filters":"Test3"},{"title":"Test 223","slug":"test223","icon":"shop-iconV2.svg","filters":"Test3"},{"title":"Test 224","slug":"test224","icon":"shop-iconV2.svg","filters":"Test1"},{"title":"Test 225","slug":"test225","icon":"shop-iconV2.svg","filters":"Test1"},{"title":"Test 226","slug":"test226","icon":"shop-iconV2.svg","filters":"Test2"},{"title":"Test 227","slug":"test227","icon":"shop-iconV2.svg","filters":"Test3, Test4"},{"title":"Test 228","slug":"test228","icon":"shop-iconV2.svg","filters":"Test5, Test6"},{"title":"Test 229","slug":"test229","icon":"shop-iconV2.svg","filters":"Test5, Test6"},{"title":"Test 230","slug":"test230","icon":"shop-iconV2.svg","filters":"Test1"},{"title":"Test 231","slug":"test231","icon":"shop-iconV2.svg","filters":"Test2"},{"title":"Test 232","slug":"test232","icon":"shop-iconV2.svg","filters":"Test3"},{"title":"Test 233","slug":"test233","icon":"shop-iconV2.svg","filters":"Test 3, Test4"},{"title":"Test 234","slug":"test234","icon":"shop-iconV2.svg","filters":"Test3"},{"title":"Test 235","slug":"test235","icon":"shop-iconV2.svg","filters":"Test3"},{"title":"Test 236","slug":"test236","icon":"shop-iconV2.svg","filters":"Test1"},{"title":"Test 237","slug":"test237","icon":"shop-iconV2.svg","filters":"Test1"},{"title":"Test 238","slug":"test238","icon":"shop-iconV2.svg","filters":"Test2"},{"title":"Test 239","slug":"test239","icon":"shop-iconV2.svg","filters":"Test3, Test4"},{"title":"Test 240","slug":"test240","icon":"shop-iconV2.svg","filters":"Test5, Test6"},{"title":"Test 241","slug":"test241","icon":"shop-iconV2.svg","filters":"Test5, Test6"}],"pageInfo":{"pageCount":15,"hasPreviousPage":true,"hasNextPage":true,"currentPage":12},"totalCount":287}},"pageContext":{"slug":"cars","limit":20,"skip":220,"collectionType":"tag","paginatePostsPage":false,"basePath":"/","services":{"algolia":false,"mailchimp":false,"disqus":false,"graphComment":false,"facebookComment":false},"siteUrl":null,"mobileMenu":{"title":"Topics","items":[{"name":"Advertising","slug":"/category/advertising/"},{"name":"Innovation","slug":"/category/innovation/"},{"name":"Management","slug":"/category/management/"},{"name":"Case Studies","slug":"/category/case-studies/"}]},"darkMode":true,"includeExcerpt":true,"includeTimeToRead":true,"includeTableOfContents":true,"imageQuality":75}},"staticQueryHashes":["1992822086","2103122295","2409295108","2899663612"]}