{"componentChunkName":"component---packages-blog-gatsby-blog-core-src-templates-categories-gs-js","path":"/category1/page/10/","result":{"data":{"collectionInfo":{"id":"adf5d943-cf7c-560d-8bcc-180ad42e98b0","name":"Category 1","slug":"category1","description":"Lorem ipsum dolor sit amet, consectetur adipiscing elit, sed do eiusmod tempor incididunt ut labore."},"posts":{"nodes":[{"title":"Test 241","slug":"test241","icon":"shop-iconV2.svg","filters":"Test5, Test6"},{"title":"Test 242","slug":"test242","icon":"shop-iconV2.svg","filters":"Test1"},{"title":"Test 243","slug":"test243","icon":"shop-iconV2.svg","filters":"Test2"},{"title":"Test 244","slug":"test244","icon":"shop-iconV2.svg","filters":"Test3"},{"title":"Test 245","slug":"test245","icon":"shop-iconV2.svg","filters":"Test 3, Test4"},{"title":"Test 246","slug":"test246","icon":"shop-iconV2.svg","filters":"Test3"},{"title":"Test 247","slug":"test247","icon":"shop-iconV2.svg","filters":"Test3"},{"title":"Test 248","slug":"test248","icon":"shop-iconV2.svg","filters":"Test1"},{"title":"Test 249","slug":"test249","icon":"shop-iconV2.svg","filters":"Test1"},{"title":"Test 253","slug":"test253","icon":"shop-iconV2.svg","filters":"Test5, Test6"},{"title":"Test 254","slug":"test254","icon":"shop-iconV2.svg","filters":"Test1"},{"title":"Test 255","slug":"test255","icon":"shop-iconV2.svg","filters":"Test2"},{"title":"Test 256","slug":"test256","icon":"shop-iconV2.svg","filters":"Test3"},{"title":"Test 257","slug":"test257","icon":"shop-iconV2.svg","filters":"Test 3, Test4"},{"title":"Test 258","slug":"test258","icon":"shop-iconV2.svg","filters":"Test3"},{"title":"Test 259","slug":"test259","icon":"shop-iconV2.svg","filters":"Test3"},{"title":"Test 260","slug":"test260","icon":"shop-iconV2.svg","filters":"Test1"},{"title":"Test 261","slug":"test261","icon":"shop-iconV2.svg","filters":"Test1"},{"title":"Test 265","slug":"test265","icon":"shop-iconV2.svg","filters":"Test5, Test6"},{"title":"Test 266","slug":"test266","icon":"shop-iconV2.svg","filters":"Test1"}],"pageInfo":{"pageCount":11,"hasPreviousPage":true,"hasNextPage":true,"currentPage":10},"totalCount":216}},"pageContext":{"slug":"category1","limit":20,"skip":180,"collectionType":"categor","paginatePostsPage":false,"basePath":"/","services":{"algolia":false,"mailchimp":false,"disqus":false,"graphComment":false,"facebookComment":false},"siteUrl":null,"mobileMenu":{"title":"Topics","items":[{"name":"Advertising","slug":"/category/advertising/"},{"name":"Innovation","slug":"/category/innovation/"},{"name":"Management","slug":"/category/management/"},{"name":"Case Studies","slug":"/category/case-studies/"}]},"darkMode":true,"includeExcerpt":true,"includeTimeToRead":true,"includeTableOfContents":true,"imageQuality":75}},"staticQueryHashes":["1992822086","2103122295","2409295108","2899663612"]}