{"componentChunkName":"component---packages-blog-gatsby-blog-core-src-templates-author-gs-js","path":"/john_doe/page/5/","result":{"data":{"collectionInfo":{"id":"eb33d9e2-4672-541d-acc6-ddc5c5f95b5b","slug":"john_doe","name":"John Doe","photo":"john-doe.jpg","description":"Sed commodo, est quis maximus fermentum, massa ipsum euismod neque, in varius risus tellus quis lacus. Sed ac bibendum odio.","expertise":"JavaScript, React, Nodejs","position":"Web Developer","instagram":"https://instagram.com/","twitter":"https://twitter.com/","website":"https://www.google.com/"},"posts":{"nodes":[{"title":"Test 241","slug":"test241","icon":"shop-iconV2.svg","filters":"Test5, Test6"},{"title":"Test 242","slug":"test242","icon":"shop-iconV2.svg","filters":"Test1"},{"title":"Test 245","slug":"test245","icon":"shop-iconV2.svg","filters":"Test 3, Test4"},{"title":"Test 250","slug":"test250","icon":"shop-iconV2.svg","filters":"Test2"},{"title":"Test 253","slug":"test253","icon":"shop-iconV2.svg","filters":"Test5, Test6"},{"title":"Test 254","slug":"test254","icon":"shop-iconV2.svg","filters":"Test1"},{"title":"Test 257","slug":"test257","icon":"shop-iconV2.svg","filters":"Test 3, Test4"},{"title":"Test 262","slug":"test262","icon":"shop-iconV2.svg","filters":"Test2"},{"title":"Test 265","slug":"test265","icon":"shop-iconV2.svg","filters":"Test5, Test6"},{"title":"Test 266","slug":"test266","icon":"shop-iconV2.svg","filters":"Test1"},{"title":"Test 269","slug":"test269","icon":"shop-iconV2.svg","filters":"Test 3, Test4"},{"title":"Test 274","slug":"test274","icon":"shop-iconV2.svg","filters":"Test2"},{"title":"Test 277","slug":"test277","icon":"shop-iconV2.svg","filters":"Test5, Test6"},{"title":"Test 278","slug":"test278","icon":"shop-iconV2.svg","filters":"Test1"},{"title":"Test 281","slug":"test281","icon":"shop-iconV2.svg","filters":"Test 3, Test4"},{"title":"Test 286","slug":"test286","icon":"shop-iconV2.svg","filters":"Test2"}],"pageInfo":{"pageCount":5,"hasPreviousPage":true,"hasNextPage":false,"currentPage":5},"totalCount":96}},"pageContext":{"slug":"john_doe","limit":20,"skip":80,"collectionType":"autho","paginatePostsPage":false,"basePath":"/","services":{"algolia":false,"mailchimp":false,"disqus":false,"graphComment":false,"facebookComment":false},"siteUrl":null,"mobileMenu":{"title":"Topics","items":[{"name":"Advertising","slug":"/category/advertising/"},{"name":"Innovation","slug":"/category/innovation/"},{"name":"Management","slug":"/category/management/"},{"name":"Case Studies","slug":"/category/case-studies/"}]},"darkMode":true,"includeExcerpt":true,"includeTimeToRead":true,"includeTableOfContents":true,"imageQuality":75}},"staticQueryHashes":["1992822086","2103122295","2409295108","2899663612"]}