{"componentChunkName":"component---packages-blog-gatsby-blog-core-src-templates-author-gs-js","path":"/john_doe/page/3/","result":{"data":{"collectionInfo":{"id":"eb33d9e2-4672-541d-acc6-ddc5c5f95b5b","slug":"john_doe","name":"John Doe","photo":"john-doe.jpg","description":"Sed commodo, est quis maximus fermentum, massa ipsum euismod neque, in varius risus tellus quis lacus. Sed ac bibendum odio.","expertise":"JavaScript, React, Nodejs","position":"Web Developer","instagram":"https://instagram.com/","twitter":"https://twitter.com/","website":"https://www.google.com/"},"posts":{"nodes":[{"title":"Test 121","slug":"test121","icon":"shop-iconV2.svg","filters":"Test5, Test6"},{"title":"Test 122","slug":"test122","icon":"shop-iconV2.svg","filters":"Test1"},{"title":"Test 125","slug":"test125","icon":"shop-iconV2.svg","filters":"Test 3, Test4"},{"title":"Test 130","slug":"test130","icon":"shop-iconV2.svg","filters":"Test2"},{"title":"Test 133","slug":"test133","icon":"shop-iconV2.svg","filters":"Test5, Test6"},{"title":"Test 134","slug":"test134","icon":"shop-iconV2.svg","filters":"Test1"},{"title":"Test 137","slug":"test137","icon":"shop-iconV2.svg","filters":"Test 3, Test4"},{"title":"Test 142","slug":"test142","icon":"shop-iconV2.svg","filters":"Test2"},{"title":"Test 145","slug":"test145","icon":"shop-iconV2.svg","filters":"Test5, Test6"},{"title":"Test 146","slug":"test146","icon":"shop-iconV2.svg","filters":"Test1"},{"title":"Test 149","slug":"test149","icon":"shop-iconV2.svg","filters":"Test 3, Test4"},{"title":"Test 154","slug":"test154","icon":"shop-iconV2.svg","filters":"Test2"},{"title":"Test 157","slug":"test157","icon":"shop-iconV2.svg","filters":"Test5, Test6"},{"title":"Test 158","slug":"test158","icon":"shop-iconV2.svg","filters":"Test1"},{"title":"Test 161","slug":"test161","icon":"shop-iconV2.svg","filters":"Test 3, Test4"},{"title":"Test 166","slug":"test166","icon":"shop-iconV2.svg","filters":"Test2"},{"title":"Test 169","slug":"test169","icon":"shop-iconV2.svg","filters":"Test5, Test6"},{"title":"Test 170","slug":"test170","icon":"shop-iconV2.svg","filters":"Test1"},{"title":"Test 173","slug":"test173","icon":"shop-iconV2.svg","filters":"Test 3, Test4"},{"title":"Test 178","slug":"test178","icon":"shop-iconV2.svg","filters":"Test2"}],"pageInfo":{"pageCount":5,"hasPreviousPage":true,"hasNextPage":true,"currentPage":3},"totalCount":96}},"pageContext":{"slug":"john_doe","limit":20,"skip":40,"collectionType":"autho","paginatePostsPage":false,"basePath":"/","services":{"algolia":false,"mailchimp":false,"disqus":false,"graphComment":false,"facebookComment":false},"siteUrl":null,"mobileMenu":{"title":"Topics","items":[{"name":"Advertising","slug":"/category/advertising/"},{"name":"Innovation","slug":"/category/innovation/"},{"name":"Management","slug":"/category/management/"},{"name":"Case Studies","slug":"/category/case-studies/"}]},"darkMode":true,"includeExcerpt":true,"includeTimeToRead":true,"includeTableOfContents":true,"imageQuality":75}},"staticQueryHashes":["1992822086","2103122295","2409295108","2899663612"]}