{"componentChunkName":"component---packages-blog-gatsby-blog-core-src-templates-categories-gs-js","path":"/category1/page/3/","result":{"data":{"collectionInfo":{"id":"adf5d943-cf7c-560d-8bcc-180ad42e98b0","name":"Category 1","slug":"category1","description":"Lorem ipsum dolor sit amet, consectetur adipiscing elit, sed do eiusmod tempor incididunt ut labore."},"posts":{"nodes":[{"title":"Test 53","slug":"test53","icon":"shop-iconV2.svg","filters":"Test 3, Test4"},{"title":"Test 54","slug":"test54","icon":"shop-iconV2.svg","filters":"Test3"},{"title":"Test 55","slug":"test55","icon":"shop-iconV2.svg","filters":"Test3"},{"title":"Test 56","slug":"test56","icon":"shop-iconV2.svg","filters":"Test1"},{"title":"Test 57","slug":"test57","icon":"shop-iconV2.svg","filters":"Test1"},{"title":"Test 61","slug":"test61","icon":"shop-iconV2.svg","filters":"Test5, Test6"},{"title":"Test 62","slug":"test62","icon":"shop-iconV2.svg","filters":"Test1"},{"title":"Test 63","slug":"test63","icon":"shop-iconV2.svg","filters":"Test2"},{"title":"Test 64","slug":"test64","icon":"shop-iconV2.svg","filters":"Test3"},{"title":"Test 65","slug":"test65","icon":"shop-iconV2.svg","filters":"Test 3, Test4"},{"title":"Test 66","slug":"test66","icon":"shop-iconV2.svg","filters":"Test3"},{"title":"Test 67","slug":"test67","icon":"shop-iconV2.svg","filters":"Test3"},{"title":"Test 68","slug":"test68","icon":"shop-iconV2.svg","filters":"Test1"},{"title":"Test 69","slug":"test69","icon":"shop-iconV2.svg","filters":"Test1"},{"title":"Test 73","slug":"test73","icon":"shop-iconV2.svg","filters":"Test5, Test6"},{"title":"Test 74","slug":"test74","icon":"shop-iconV2.svg","filters":"Test1"},{"title":"Test 75","slug":"test75","icon":"shop-iconV2.svg","filters":"Test2"},{"title":"Test 76","slug":"test76","icon":"shop-iconV2.svg","filters":"Test3"},{"title":"Test 77","slug":"test77","icon":"shop-iconV2.svg","filters":"Test 3, Test4"},{"title":"Test 78","slug":"test78","icon":"shop-iconV2.svg","filters":"Test3"}],"pageInfo":{"pageCount":11,"hasPreviousPage":true,"hasNextPage":true,"currentPage":3},"totalCount":216}},"pageContext":{"slug":"category1","limit":20,"skip":40,"collectionType":"categor","paginatePostsPage":false,"basePath":"/","services":{"algolia":false,"mailchimp":false,"disqus":false,"graphComment":false,"facebookComment":false},"siteUrl":null,"mobileMenu":{"title":"Topics","items":[{"name":"Advertising","slug":"/category/advertising/"},{"name":"Innovation","slug":"/category/innovation/"},{"name":"Management","slug":"/category/management/"},{"name":"Case Studies","slug":"/category/case-studies/"}]},"darkMode":true,"includeExcerpt":true,"includeTimeToRead":true,"includeTableOfContents":true,"imageQuality":75}},"staticQueryHashes":["1992822086","2103122295","2409295108","2899663612"]}