{"componentChunkName":"component---packages-blog-gatsby-blog-core-src-templates-tags-gs-js","path":"/business/page/9/","result":{"data":{"collectionInfo":{"name":"#business","slug":"business"},"posts":{"nodes":[{"title":"Test 161","slug":"test161","icon":"shop-iconV2.svg","filters":"Test 3, Test4"},{"title":"Test 162","slug":"test162","icon":"shop-iconV2.svg","filters":"Test3"},{"title":"Test 163","slug":"test163","icon":"shop-iconV2.svg","filters":"Test3"},{"title":"Test 164","slug":"test164","icon":"shop-iconV2.svg","filters":"Test1"},{"title":"Test 165","slug":"test165","icon":"shop-iconV2.svg","filters":"Test1"},{"title":"Test 166","slug":"test166","icon":"shop-iconV2.svg","filters":"Test2"},{"title":"Test 167","slug":"test167","icon":"shop-iconV2.svg","filters":"Test3, Test4"},{"title":"Test 168","slug":"test168","icon":"shop-iconV2.svg","filters":"Test5, Test6"},{"title":"Test 169","slug":"test169","icon":"shop-iconV2.svg","filters":"Test5, Test6"},{"title":"Test 170","slug":"test170","icon":"shop-iconV2.svg","filters":"Test1"},{"title":"Test 171","slug":"test171","icon":"shop-iconV2.svg","filters":"Test2"},{"title":"Test 172","slug":"test172","icon":"shop-iconV2.svg","filters":"Test3"},{"title":"Test 173","slug":"test173","icon":"shop-iconV2.svg","filters":"Test 3, Test4"},{"title":"Test 174","slug":"test174","icon":"shop-iconV2.svg","filters":"Test3"},{"title":"Test 175","slug":"test175","icon":"shop-iconV2.svg","filters":"Test3"},{"title":"Test 176","slug":"test176","icon":"shop-iconV2.svg","filters":"Test1"},{"title":"Test 177","slug":"test177","icon":"shop-iconV2.svg","filters":"Test1"},{"title":"Test 178","slug":"test178","icon":"shop-iconV2.svg","filters":"Test2"},{"title":"Test 179","slug":"test179","icon":"shop-iconV2.svg","filters":"Test3, Test4"},{"title":"Test 180","slug":"test180","icon":"shop-iconV2.svg","filters":"Test5, Test6"}],"pageInfo":{"pageCount":15,"hasPreviousPage":true,"hasNextPage":true,"currentPage":9},"totalCount":288}},"pageContext":{"slug":"business","limit":20,"skip":160,"collectionType":"tag","paginatePostsPage":false,"basePath":"/","services":{"algolia":false,"mailchimp":false,"disqus":false,"graphComment":false,"facebookComment":false},"siteUrl":null,"mobileMenu":{"title":"Topics","items":[{"name":"Advertising","slug":"/category/advertising/"},{"name":"Innovation","slug":"/category/innovation/"},{"name":"Management","slug":"/category/management/"},{"name":"Case Studies","slug":"/category/case-studies/"}]},"darkMode":true,"includeExcerpt":true,"includeTimeToRead":true,"includeTableOfContents":true,"imageQuality":75}},"staticQueryHashes":["1992822086","2103122295","2409295108","2899663612"]}