{"componentChunkName":"component---packages-blog-gatsby-blog-core-src-templates-categories-gs-js","path":"/category2/","result":{"data":{"collectionInfo":{"id":"5af2e4fd-86a2-50bf-b8a6-fd78aa5aa811","name":"Category 2","slug":"category2","description":"Lorem ipsum dolor sit amet, consectetur adipiscing elit, sed do eiusmod tempor incididunt ut labore."},"posts":{"nodes":[{"title":"Test 10","slug":"test10","icon":"shop-iconV2.svg","filters":"Test2"},{"title":"Test 11","slug":"test11","icon":"shop-iconV2.svg","filters":"Test3, Test4"},{"title":"Test 22","slug":"test22","icon":"shop-iconV2.svg","filters":"Test2"},{"title":"Test 23","slug":"test23","icon":"shop-iconV2.svg","filters":"Test3, Test4"},{"title":"Test 34","slug":"test34","icon":"shop-iconV2.svg","filters":"Test2"},{"title":"Test 35","slug":"test35","icon":"shop-iconV2.svg","filters":"Test3, Test4"},{"title":"Test 46","slug":"test46","icon":"shop-iconV2.svg","filters":"Test2"},{"title":"Test 47","slug":"test47","icon":"shop-iconV2.svg","filters":"Test3, Test4"},{"title":"Test 58","slug":"test58","icon":"shop-iconV2.svg","filters":"Test2"},{"title":"Test 59","slug":"test59","icon":"shop-iconV2.svg","filters":"Test3, Test4"},{"title":"Test 70","slug":"test70","icon":"shop-iconV2.svg","filters":"Test2"},{"title":"Test 71","slug":"test71","icon":"shop-iconV2.svg","filters":"Test3, Test4"},{"title":"Test 82","slug":"test82","icon":"shop-iconV2.svg","filters":"Test2"},{"title":"Test 83","slug":"test83","icon":"shop-iconV2.svg","filters":"Test3, Test4"},{"title":"Test 94","slug":"test94","icon":"shop-iconV2.svg","filters":"Test2"},{"title":"Test 95","slug":"test95","icon":"shop-iconV2.svg","filters":"Test3, Test4"},{"title":"Test 106","slug":"test106","icon":"shop-iconV2.svg","filters":"Test2"},{"title":"Test 107","slug":"test107","icon":"shop-iconV2.svg","filters":"Test3, Test4"},{"title":"Test 118","slug":"test118","icon":"shop-iconV2.svg","filters":"Test2"},{"title":"Test 119","slug":"test119","icon":"shop-iconV2.svg","filters":"Test3, Test4"}],"pageInfo":{"pageCount":3,"hasPreviousPage":false,"hasNextPage":true,"currentPage":1},"totalCount":48}},"pageContext":{"slug":"category2","limit":20,"skip":0,"collectionType":"categor","paginatePostsPage":false,"basePath":"/","services":{"algolia":false,"mailchimp":false,"disqus":false,"graphComment":false,"facebookComment":false},"siteUrl":null,"mobileMenu":{"title":"Topics","items":[{"name":"Advertising","slug":"/category/advertising/"},{"name":"Innovation","slug":"/category/innovation/"},{"name":"Management","slug":"/category/management/"},{"name":"Case Studies","slug":"/category/case-studies/"}]},"darkMode":true,"includeExcerpt":true,"includeTimeToRead":true,"includeTableOfContents":true,"imageQuality":75}},"staticQueryHashes":["1992822086","2103122295","2409295108","2899663612"]}