{"componentChunkName":"component---packages-blog-gatsby-blog-core-src-templates-author-gs-js","path":"/jane_smith/page/8/","result":{"data":{"collectionInfo":{"id":"78ac3c44-6316-51dd-8ff3-b75d84444402","slug":"jane_smith","name":"Jane Smith","photo":"jane-smith.jpg","description":"Sed commodo, est quis maximus fermentum, massa ipsum euismod neque, in varius risus tellus quis lacus. Sed ac bibendum odio.","expertise":"Advertising, Bussiness, Designer","position":"Creative Designer","instagram":"https://instagram.com/","twitter":"https://twitter.com/","website":"https://www.google.com/"},"posts":{"nodes":[{"title":"Test 212","slug":"test212","icon":"shop-iconV2.svg","filters":"Test1"},{"title":"Test 213","slug":"test213","icon":"shop-iconV2.svg","filters":"Test1"},{"title":"Test 215","slug":"test215","icon":"shop-iconV2.svg","filters":"Test3, Test4"},{"title":"Test 216","slug":"test216","icon":"shop-iconV2.svg","filters":"Test5, Test6"},{"title":"Test 219","slug":"test219","icon":"shop-iconV2.svg","filters":"Test2"},{"title":"Test 220","slug":"test220","icon":"shop-iconV2.svg","filters":"Test3"},{"title":"Test 222","slug":"test222","icon":"shop-iconV2.svg","filters":"Test3"},{"title":"Test 223","slug":"test223","icon":"shop-iconV2.svg","filters":"Test3"},{"title":"Test 224","slug":"test224","icon":"shop-iconV2.svg","filters":"Test1"},{"title":"Test 225","slug":"test225","icon":"shop-iconV2.svg","filters":"Test1"},{"title":"Test 227","slug":"test227","icon":"shop-iconV2.svg","filters":"Test3, Test4"},{"title":"Test 228","slug":"test228","icon":"shop-iconV2.svg","filters":"Test5, Test6"},{"title":"Test 231","slug":"test231","icon":"shop-iconV2.svg","filters":"Test2"},{"title":"Test 232","slug":"test232","icon":"shop-iconV2.svg","filters":"Test3"},{"title":"Test 234","slug":"test234","icon":"shop-iconV2.svg","filters":"Test3"},{"title":"Test 235","slug":"test235","icon":"shop-iconV2.svg","filters":"Test3"},{"title":"Test 236","slug":"test236","icon":"shop-iconV2.svg","filters":"Test1"},{"title":"Test 237","slug":"test237","icon":"shop-iconV2.svg","filters":"Test1"},{"title":"Test 239","slug":"test239","icon":"shop-iconV2.svg","filters":"Test3, Test4"},{"title":"Test 240","slug":"test240","icon":"shop-iconV2.svg","filters":"Test5, Test6"}],"pageInfo":{"pageCount":10,"hasPreviousPage":true,"hasNextPage":true,"currentPage":8},"totalCount":192}},"pageContext":{"slug":"jane_smith","limit":20,"skip":140,"collectionType":"autho","paginatePostsPage":false,"basePath":"/","services":{"algolia":false,"mailchimp":false,"disqus":false,"graphComment":false,"facebookComment":false},"siteUrl":null,"mobileMenu":{"title":"Topics","items":[{"name":"Advertising","slug":"/category/advertising/"},{"name":"Innovation","slug":"/category/innovation/"},{"name":"Management","slug":"/category/management/"},{"name":"Case Studies","slug":"/category/case-studies/"}]},"darkMode":true,"includeExcerpt":true,"includeTimeToRead":true,"includeTableOfContents":true,"imageQuality":75}},"staticQueryHashes":["1992822086","2103122295","2409295108","2899663612"]}