{"componentChunkName":"component---packages-blog-gatsby-blog-core-src-templates-categories-gs-js","path":"/category1/page/11/","result":{"data":{"collectionInfo":{"id":"adf5d943-cf7c-560d-8bcc-180ad42e98b0","name":"Category 1","slug":"category1","description":"Lorem ipsum dolor sit amet, consectetur adipiscing elit, sed do eiusmod tempor incididunt ut labore."},"posts":{"nodes":[{"title":"Test 267","slug":"test267","icon":"shop-iconV2.svg","filters":"Test2"},{"title":"Test 268","slug":"test268","icon":"shop-iconV2.svg","filters":"Test3"},{"title":"Test 269","slug":"test269","icon":"shop-iconV2.svg","filters":"Test 3, Test4"},{"title":"Test 270","slug":"test270","icon":"shop-iconV2.svg","filters":"Test3"},{"title":"Test 271","slug":"test271","icon":"shop-iconV2.svg","filters":"Test3"},{"title":"Test 272","slug":"test272","icon":"shop-iconV2.svg","filters":"Test1"},{"title":"Test 273","slug":"test273","icon":"shop-iconV2.svg","filters":"Test1"},{"title":"Test 277","slug":"test277","icon":"shop-iconV2.svg","filters":"Test5, Test6"},{"title":"Test 278","slug":"test278","icon":"shop-iconV2.svg","filters":"Test1"},{"title":"Test 279","slug":"test279","icon":"shop-iconV2.svg","filters":"Test2"},{"title":"Test 280","slug":"test280","icon":"shop-iconV2.svg","filters":"Test3"},{"title":"Test 281","slug":"test281","icon":"shop-iconV2.svg","filters":"Test 3, Test4"},{"title":"Test 282","slug":"test282","icon":"shop-iconV2.svg","filters":"Test3"},{"title":"Test 283","slug":"test283","icon":"shop-iconV2.svg","filters":"Test3"},{"title":"Test 284","slug":"test284","icon":"shop-iconV2.svg","filters":"Test1"},{"title":"Test 285","slug":"test285","icon":"shop-iconV2.svg","filters":"Test1"}],"pageInfo":{"pageCount":11,"hasPreviousPage":true,"hasNextPage":false,"currentPage":11},"totalCount":216}},"pageContext":{"slug":"category1","limit":20,"skip":200,"collectionType":"categor","paginatePostsPage":false,"basePath":"/","services":{"algolia":false,"mailchimp":false,"disqus":false,"graphComment":false,"facebookComment":false},"siteUrl":null,"mobileMenu":{"title":"Topics","items":[{"name":"Advertising","slug":"/category/advertising/"},{"name":"Innovation","slug":"/category/innovation/"},{"name":"Management","slug":"/category/management/"},{"name":"Case Studies","slug":"/category/case-studies/"}]},"darkMode":true,"includeExcerpt":true,"includeTimeToRead":true,"includeTableOfContents":true,"imageQuality":75}},"staticQueryHashes":["1992822086","2103122295","2409295108","2899663612"]}