{"componentChunkName":"component---packages-blog-gatsby-blog-core-src-templates-categories-gs-js","path":"/category1/","result":{"data":{"collectionInfo":{"id":"adf5d943-cf7c-560d-8bcc-180ad42e98b0","name":"Category 1","slug":"category1","description":"Lorem ipsum dolor sit amet, consectetur adipiscing elit, sed do eiusmod tempor incididunt ut labore."},"posts":{"nodes":[{"title":"Test 1","slug":"test1","icon":"shop-iconV2.svg","filters":"Test5, Test6"},{"title":"Test 2","slug":"test2","icon":"shop-iconV2.svg","filters":"Test1"},{"title":"Test 3","slug":"test3","icon":"shop-iconV2.svg","filters":"Test2"},{"title":"Test 4","slug":"test4","icon":"shop-iconV2.svg","filters":"Test3"},{"title":"Test 5","slug":"test5","icon":"shop-iconV2.svg","filters":"Test 3, Test4"},{"title":"Test 6","slug":"test6","icon":"shop-iconV2.svg","filters":"Test3"},{"title":"Test 7","slug":"test7","icon":"shop-iconV2.svg","filters":"Test3"},{"title":"Test 8","slug":"test8","icon":"shop-iconV2.svg","filters":"Test1"},{"title":"Test 9","slug":"test9","icon":"shop-iconV2.svg","filters":"Test1"},{"title":"Test 13","slug":"test13","icon":"shop-iconV2.svg","filters":"Test5, Test6"},{"title":"Test 14","slug":"test14","icon":"shop-iconV2.svg","filters":"Test1"},{"title":"Test 15","slug":"test15","icon":"shop-iconV2.svg","filters":"Test2"},{"title":"Test 16","slug":"test16","icon":"shop-iconV2.svg","filters":"Test3"},{"title":"Test 17","slug":"test17","icon":"shop-iconV2.svg","filters":"Test 3, Test4"},{"title":"Test 18","slug":"test18","icon":"shop-iconV2.svg","filters":"Test3"},{"title":"Test 19","slug":"test19","icon":"shop-iconV2.svg","filters":"Test3"},{"title":"Test 20","slug":"test20","icon":"shop-iconV2.svg","filters":"Test1"},{"title":"Test 21","slug":"test21","icon":"shop-iconV2.svg","filters":"Test1"},{"title":"Test 25","slug":"test25","icon":"shop-iconV2.svg","filters":"Test5, Test6"},{"title":"Test 26","slug":"test26","icon":"shop-iconV2.svg","filters":"Test1"}],"pageInfo":{"pageCount":11,"hasPreviousPage":false,"hasNextPage":true,"currentPage":1},"totalCount":216}},"pageContext":{"slug":"category1","limit":20,"skip":0,"collectionType":"categor","paginatePostsPage":false,"basePath":"/","services":{"algolia":false,"mailchimp":false,"disqus":false,"graphComment":false,"facebookComment":false},"siteUrl":null,"mobileMenu":{"title":"Topics","items":[{"name":"Advertising","slug":"/category/advertising/"},{"name":"Innovation","slug":"/category/innovation/"},{"name":"Management","slug":"/category/management/"},{"name":"Case Studies","slug":"/category/case-studies/"}]},"darkMode":true,"includeExcerpt":true,"includeTimeToRead":true,"includeTableOfContents":true,"imageQuality":75}},"staticQueryHashes":["1992822086","2103122295","2409295108","2899663612"]}