{"componentChunkName":"component---packages-blog-gatsby-blog-core-src-templates-tags-gs-js","path":"/cars/page/2/","result":{"data":{"collectionInfo":null,"posts":{"nodes":[{"title":"Test 22","slug":"test22","icon":"shop-iconV2.svg","filters":"Test2"},{"title":"Test 23","slug":"test23","icon":"shop-iconV2.svg","filters":"Test3, Test4"},{"title":"Test 24","slug":"test24","icon":"shop-iconV2.svg","filters":"Test5, Test6"},{"title":"Test 25","slug":"test25","icon":"shop-iconV2.svg","filters":"Test5, Test6"},{"title":"Test 26","slug":"test26","icon":"shop-iconV2.svg","filters":"Test1"},{"title":"Test 27","slug":"test27","icon":"shop-iconV2.svg","filters":"Test2"},{"title":"Test 28","slug":"test28","icon":"shop-iconV2.svg","filters":"Test3"},{"title":"Test 29","slug":"test29","icon":"shop-iconV2.svg","filters":"Test 3, Test4"},{"title":"Test 30","slug":"test30","icon":"shop-iconV2.svg","filters":"Test3"},{"title":"Test 31","slug":"test31","icon":"shop-iconV2.svg","filters":"Test3"},{"title":"Test 32","slug":"test32","icon":"shop-iconV2.svg","filters":"Test1"},{"title":"Test 33","slug":"test33","icon":"shop-iconV2.svg","filters":"Test1"},{"title":"Test 34","slug":"test34","icon":"shop-iconV2.svg","filters":"Test2"},{"title":"Test 35","slug":"test35","icon":"shop-iconV2.svg","filters":"Test3, Test4"},{"title":"Test 36","slug":"test36","icon":"shop-iconV2.svg","filters":"Test5, Test6"},{"title":"Test 37","slug":"test37","icon":"shop-iconV2.svg","filters":"Test5, Test6"},{"title":"Test 38","slug":"test38","icon":"shop-iconV2.svg","filters":"Test1"},{"title":"Test 39","slug":"test39","icon":"shop-iconV2.svg","filters":"Test2"},{"title":"Test 40","slug":"test40","icon":"shop-iconV2.svg","filters":"Test3"},{"title":"Test 41","slug":"test41","icon":"shop-iconV2.svg","filters":"Test 3, Test4"}],"pageInfo":{"pageCount":15,"hasPreviousPage":true,"hasNextPage":true,"currentPage":2},"totalCount":287}},"pageContext":{"slug":"cars","limit":20,"skip":20,"collectionType":"tag","paginatePostsPage":false,"basePath":"/","services":{"algolia":false,"mailchimp":false,"disqus":false,"graphComment":false,"facebookComment":false},"siteUrl":null,"mobileMenu":{"title":"Topics","items":[{"name":"Advertising","slug":"/category/advertising/"},{"name":"Innovation","slug":"/category/innovation/"},{"name":"Management","slug":"/category/management/"},{"name":"Case Studies","slug":"/category/case-studies/"}]},"darkMode":true,"includeExcerpt":true,"includeTimeToRead":true,"includeTableOfContents":true,"imageQuality":75}},"staticQueryHashes":["1992822086","2103122295","2409295108","2899663612"]}