{"componentChunkName":"component---packages-blog-gatsby-blog-core-src-templates-tags-gs-js","path":"/business/page/5/","result":{"data":{"collectionInfo":{"name":"#business","slug":"business"},"posts":{"nodes":[{"title":"Test 81","slug":"test81","icon":"shop-iconV2.svg","filters":"Test1"},{"title":"Test 82","slug":"test82","icon":"shop-iconV2.svg","filters":"Test2"},{"title":"Test 83","slug":"test83","icon":"shop-iconV2.svg","filters":"Test3, Test4"},{"title":"Test 84","slug":"test84","icon":"shop-iconV2.svg","filters":"Test5, Test6"},{"title":"Test 85","slug":"test85","icon":"shop-iconV2.svg","filters":"Test5, Test6"},{"title":"Test 86","slug":"test86","icon":"shop-iconV2.svg","filters":"Test1"},{"title":"Test 87","slug":"test87","icon":"shop-iconV2.svg","filters":"Test2"},{"title":"Test 88","slug":"test88","icon":"shop-iconV2.svg","filters":"Test3"},{"title":"Test 89","slug":"test89","icon":"shop-iconV2.svg","filters":"Test 3, Test4"},{"title":"Test 90","slug":"test90","icon":"shop-iconV2.svg","filters":"Test3"},{"title":"Test 91","slug":"test91","icon":"shop-iconV2.svg","filters":"Test3"},{"title":"Test 92","slug":"test92","icon":"shop-iconV2.svg","filters":"Test1"},{"title":"Test 93","slug":"test93","icon":"shop-iconV2.svg","filters":"Test1"},{"title":"Test 94","slug":"test94","icon":"shop-iconV2.svg","filters":"Test2"},{"title":"Test 95","slug":"test95","icon":"shop-iconV2.svg","filters":"Test3, Test4"},{"title":"Test 96","slug":"test96","icon":"shop-iconV2.svg","filters":"Test5, Test6"},{"title":"Test 97","slug":"test97","icon":"shop-iconV2.svg","filters":"Test5, Test6"},{"title":"Test 98","slug":"test98","icon":"shop-iconV2.svg","filters":"Test1"},{"title":"Test 99","slug":"test99","icon":"shop-iconV2.svg","filters":"Test2"},{"title":"Test 100","slug":"test100","icon":"shop-iconV2.svg","filters":"Test3"}],"pageInfo":{"pageCount":15,"hasPreviousPage":true,"hasNextPage":true,"currentPage":5},"totalCount":288}},"pageContext":{"slug":"business","limit":20,"skip":80,"collectionType":"tag","paginatePostsPage":false,"basePath":"/","services":{"algolia":false,"mailchimp":false,"disqus":false,"graphComment":false,"facebookComment":false},"siteUrl":null,"mobileMenu":{"title":"Topics","items":[{"name":"Advertising","slug":"/category/advertising/"},{"name":"Innovation","slug":"/category/innovation/"},{"name":"Management","slug":"/category/management/"},{"name":"Case Studies","slug":"/category/case-studies/"}]},"darkMode":true,"includeExcerpt":true,"includeTimeToRead":true,"includeTableOfContents":true,"imageQuality":75}},"staticQueryHashes":["1992822086","2103122295","2409295108","2899663612"]}