{"componentChunkName":"component---packages-blog-gatsby-blog-core-src-templates-tags-gs-js","path":"/business/page/7/","result":{"data":{"collectionInfo":{"name":"#business","slug":"business"},"posts":{"nodes":[{"title":"Test 121","slug":"test121","icon":"shop-iconV2.svg","filters":"Test5, Test6"},{"title":"Test 122","slug":"test122","icon":"shop-iconV2.svg","filters":"Test1"},{"title":"Test 123","slug":"test123","icon":"shop-iconV2.svg","filters":"Test2"},{"title":"Test 124","slug":"test124","icon":"shop-iconV2.svg","filters":"Test3"},{"title":"Test 125","slug":"test125","icon":"shop-iconV2.svg","filters":"Test 3, Test4"},{"title":"Test 126","slug":"test126","icon":"shop-iconV2.svg","filters":"Test3"},{"title":"Test 127","slug":"test127","icon":"shop-iconV2.svg","filters":"Test3"},{"title":"Test 128","slug":"test128","icon":"shop-iconV2.svg","filters":"Test1"},{"title":"Test 129","slug":"test129","icon":"shop-iconV2.svg","filters":"Test1"},{"title":"Test 130","slug":"test130","icon":"shop-iconV2.svg","filters":"Test2"},{"title":"Test 131","slug":"test131","icon":"shop-iconV2.svg","filters":"Test3, Test4"},{"title":"Test 132","slug":"test132","icon":"shop-iconV2.svg","filters":"Test5, Test6"},{"title":"Test 133","slug":"test133","icon":"shop-iconV2.svg","filters":"Test5, Test6"},{"title":"Test 134","slug":"test134","icon":"shop-iconV2.svg","filters":"Test1"},{"title":"Test 135","slug":"test135","icon":"shop-iconV2.svg","filters":"Test2"},{"title":"Test 136","slug":"test136","icon":"shop-iconV2.svg","filters":"Test3"},{"title":"Test 137","slug":"test137","icon":"shop-iconV2.svg","filters":"Test 3, Test4"},{"title":"Test 138","slug":"test138","icon":"shop-iconV2.svg","filters":"Test3"},{"title":"Test 139","slug":"test139","icon":"shop-iconV2.svg","filters":"Test3"},{"title":"Test 140","slug":"test140","icon":"shop-iconV2.svg","filters":"Test1"}],"pageInfo":{"pageCount":15,"hasPreviousPage":true,"hasNextPage":true,"currentPage":7},"totalCount":288}},"pageContext":{"slug":"business","limit":20,"skip":120,"collectionType":"tag","paginatePostsPage":false,"basePath":"/","services":{"algolia":false,"mailchimp":false,"disqus":false,"graphComment":false,"facebookComment":false},"siteUrl":null,"mobileMenu":{"title":"Topics","items":[{"name":"Advertising","slug":"/category/advertising/"},{"name":"Innovation","slug":"/category/innovation/"},{"name":"Management","slug":"/category/management/"},{"name":"Case Studies","slug":"/category/case-studies/"}]},"darkMode":true,"includeExcerpt":true,"includeTimeToRead":true,"includeTableOfContents":true,"imageQuality":75}},"staticQueryHashes":["1992822086","2103122295","2409295108","2899663612"]}