{"componentChunkName":"component---packages-blog-gatsby-blog-core-src-templates-categories-gs-js","path":"/category1/page/8/","result":{"data":{"collectionInfo":{"id":"adf5d943-cf7c-560d-8bcc-180ad42e98b0","name":"Category 1","slug":"category1","description":"Lorem ipsum dolor sit amet, consectetur adipiscing elit, sed do eiusmod tempor incididunt ut labore."},"posts":{"nodes":[{"title":"Test 186","slug":"test186","icon":"shop-iconV2.svg","filters":"Test3"},{"title":"Test 187","slug":"test187","icon":"shop-iconV2.svg","filters":"Test3"},{"title":"Test 188","slug":"test188","icon":"shop-iconV2.svg","filters":"Test1"},{"title":"Test 189","slug":"test189","icon":"shop-iconV2.svg","filters":"Test1"},{"title":"Test 193","slug":"test193","icon":"shop-iconV2.svg","filters":"Test5, Test6"},{"title":"Test 194","slug":"test194","icon":"shop-iconV2.svg","filters":"Test1"},{"title":"Test 195","slug":"test195","icon":"shop-iconV2.svg","filters":"Test2"},{"title":"Test 196","slug":"test196","icon":"shop-iconV2.svg","filters":"Test3"},{"title":"Test 197","slug":"test197","icon":"shop-iconV2.svg","filters":"Test 3, Test4"},{"title":"Test 198","slug":"test198","icon":"shop-iconV2.svg","filters":"Test3"},{"title":"Test 199","slug":"test199","icon":"shop-iconV2.svg","filters":"Test3"},{"title":"Test 200","slug":"test200","icon":"shop-iconV2.svg","filters":"Test1"},{"title":"Test 201","slug":"test201","icon":"shop-iconV2.svg","filters":"Test1"},{"title":"Test 205","slug":"test205","icon":"shop-iconV2.svg","filters":"Test5, Test6"},{"title":"Test 206","slug":"test206","icon":"shop-iconV2.svg","filters":"Test1"},{"title":"Test 207","slug":"test207","icon":"shop-iconV2.svg","filters":"Test2"},{"title":"Test 208","slug":"test208","icon":"shop-iconV2.svg","filters":"Test3"},{"title":"Test 209","slug":"test209","icon":"shop-iconV2.svg","filters":"Test 3, Test4"},{"title":"Test 210","slug":"test210","icon":"shop-iconV2.svg","filters":"Test3"},{"title":"Test 211","slug":"test211","icon":"shop-iconV2.svg","filters":"Test3"}],"pageInfo":{"pageCount":11,"hasPreviousPage":true,"hasNextPage":true,"currentPage":8},"totalCount":216}},"pageContext":{"slug":"category1","limit":20,"skip":140,"collectionType":"categor","paginatePostsPage":false,"basePath":"/","services":{"algolia":false,"mailchimp":false,"disqus":false,"graphComment":false,"facebookComment":false},"siteUrl":null,"mobileMenu":{"title":"Topics","items":[{"name":"Advertising","slug":"/category/advertising/"},{"name":"Innovation","slug":"/category/innovation/"},{"name":"Management","slug":"/category/management/"},{"name":"Case Studies","slug":"/category/case-studies/"}]},"darkMode":true,"includeExcerpt":true,"includeTimeToRead":true,"includeTableOfContents":true,"imageQuality":75}},"staticQueryHashes":["1992822086","2103122295","2409295108","2899663612"]}