{"componentChunkName":"component---packages-blog-gatsby-blog-core-src-templates-author-gs-js","path":"/jane_smith/page/6/","result":{"data":{"collectionInfo":{"id":"78ac3c44-6316-51dd-8ff3-b75d84444402","slug":"jane_smith","name":"Jane Smith","photo":"jane-smith.jpg","description":"Sed commodo, est quis maximus fermentum, massa ipsum euismod neque, in varius risus tellus quis lacus. Sed ac bibendum odio.","expertise":"Advertising, Bussiness, Designer","position":"Creative Designer","instagram":"https://instagram.com/","twitter":"https://twitter.com/","website":"https://www.google.com/"},"posts":{"nodes":[{"title":"Test 152","slug":"test152","icon":"shop-iconV2.svg","filters":"Test1"},{"title":"Test 153","slug":"test153","icon":"shop-iconV2.svg","filters":"Test1"},{"title":"Test 155","slug":"test155","icon":"shop-iconV2.svg","filters":"Test3, Test4"},{"title":"Test 156","slug":"test156","icon":"shop-iconV2.svg","filters":"Test5, Test6"},{"title":"Test 159","slug":"test159","icon":"shop-iconV2.svg","filters":"Test2"},{"title":"Test 160","slug":"test160","icon":"shop-iconV2.svg","filters":"Test3"},{"title":"Test 162","slug":"test162","icon":"shop-iconV2.svg","filters":"Test3"},{"title":"Test 163","slug":"test163","icon":"shop-iconV2.svg","filters":"Test3"},{"title":"Test 164","slug":"test164","icon":"shop-iconV2.svg","filters":"Test1"},{"title":"Test 165","slug":"test165","icon":"shop-iconV2.svg","filters":"Test1"},{"title":"Test 167","slug":"test167","icon":"shop-iconV2.svg","filters":"Test3, Test4"},{"title":"Test 168","slug":"test168","icon":"shop-iconV2.svg","filters":"Test5, Test6"},{"title":"Test 171","slug":"test171","icon":"shop-iconV2.svg","filters":"Test2"},{"title":"Test 172","slug":"test172","icon":"shop-iconV2.svg","filters":"Test3"},{"title":"Test 174","slug":"test174","icon":"shop-iconV2.svg","filters":"Test3"},{"title":"Test 175","slug":"test175","icon":"shop-iconV2.svg","filters":"Test3"},{"title":"Test 176","slug":"test176","icon":"shop-iconV2.svg","filters":"Test1"},{"title":"Test 177","slug":"test177","icon":"shop-iconV2.svg","filters":"Test1"},{"title":"Test 179","slug":"test179","icon":"shop-iconV2.svg","filters":"Test3, Test4"},{"title":"Test 180","slug":"test180","icon":"shop-iconV2.svg","filters":"Test5, Test6"}],"pageInfo":{"pageCount":10,"hasPreviousPage":true,"hasNextPage":true,"currentPage":6},"totalCount":192}},"pageContext":{"slug":"jane_smith","limit":20,"skip":100,"collectionType":"autho","paginatePostsPage":false,"basePath":"/","services":{"algolia":false,"mailchimp":false,"disqus":false,"graphComment":false,"facebookComment":false},"siteUrl":null,"mobileMenu":{"title":"Topics","items":[{"name":"Advertising","slug":"/category/advertising/"},{"name":"Innovation","slug":"/category/innovation/"},{"name":"Management","slug":"/category/management/"},{"name":"Case Studies","slug":"/category/case-studies/"}]},"darkMode":true,"includeExcerpt":true,"includeTimeToRead":true,"includeTableOfContents":true,"imageQuality":75}},"staticQueryHashes":["1992822086","2103122295","2409295108","2899663612"]}