{"componentChunkName":"component---packages-blog-gatsby-blog-core-src-templates-author-gs-js","path":"/jane_smith/page/9/","result":{"data":{"collectionInfo":{"id":"78ac3c44-6316-51dd-8ff3-b75d84444402","slug":"jane_smith","name":"Jane Smith","photo":"jane-smith.jpg","description":"Sed commodo, est quis maximus fermentum, massa ipsum euismod neque, in varius risus tellus quis lacus. Sed ac bibendum odio.","expertise":"Advertising, Bussiness, Designer","position":"Creative Designer","instagram":"https://instagram.com/","twitter":"https://twitter.com/","website":"https://www.google.com/"},"posts":{"nodes":[{"title":"Test 243","slug":"test243","icon":"shop-iconV2.svg","filters":"Test2"},{"title":"Test 244","slug":"test244","icon":"shop-iconV2.svg","filters":"Test3"},{"title":"Test 246","slug":"test246","icon":"shop-iconV2.svg","filters":"Test3"},{"title":"Test 247","slug":"test247","icon":"shop-iconV2.svg","filters":"Test3"},{"title":"Test 248","slug":"test248","icon":"shop-iconV2.svg","filters":"Test1"},{"title":"Test 249","slug":"test249","icon":"shop-iconV2.svg","filters":"Test1"},{"title":"Test 251","slug":"test251","icon":"shop-iconV2.svg","filters":"Test3, Test4"},{"title":"Test 252","slug":"test252","icon":"shop-iconV2.svg","filters":"Test5, Test6"},{"title":"Test 255","slug":"test255","icon":"shop-iconV2.svg","filters":"Test2"},{"title":"Test 256","slug":"test256","icon":"shop-iconV2.svg","filters":"Test3"},{"title":"Test 258","slug":"test258","icon":"shop-iconV2.svg","filters":"Test3"},{"title":"Test 259","slug":"test259","icon":"shop-iconV2.svg","filters":"Test3"},{"title":"Test 260","slug":"test260","icon":"shop-iconV2.svg","filters":"Test1"},{"title":"Test 261","slug":"test261","icon":"shop-iconV2.svg","filters":"Test1"},{"title":"Test 263","slug":"test263","icon":"shop-iconV2.svg","filters":"Test3, Test4"},{"title":"Test 264","slug":"test264","icon":"shop-iconV2.svg","filters":"Test5, Test6"},{"title":"Test 267","slug":"test267","icon":"shop-iconV2.svg","filters":"Test2"},{"title":"Test 268","slug":"test268","icon":"shop-iconV2.svg","filters":"Test3"},{"title":"Test 270","slug":"test270","icon":"shop-iconV2.svg","filters":"Test3"},{"title":"Test 271","slug":"test271","icon":"shop-iconV2.svg","filters":"Test3"}],"pageInfo":{"pageCount":10,"hasPreviousPage":true,"hasNextPage":true,"currentPage":9},"totalCount":192}},"pageContext":{"slug":"jane_smith","limit":20,"skip":160,"collectionType":"autho","paginatePostsPage":false,"basePath":"/","services":{"algolia":false,"mailchimp":false,"disqus":false,"graphComment":false,"facebookComment":false},"siteUrl":null,"mobileMenu":{"title":"Topics","items":[{"name":"Advertising","slug":"/category/advertising/"},{"name":"Innovation","slug":"/category/innovation/"},{"name":"Management","slug":"/category/management/"},{"name":"Case Studies","slug":"/category/case-studies/"}]},"darkMode":true,"includeExcerpt":true,"includeTimeToRead":true,"includeTableOfContents":true,"imageQuality":75}},"staticQueryHashes":["1992822086","2103122295","2409295108","2899663612"]}