{"componentChunkName":"component---packages-blog-gatsby-blog-core-src-templates-categories-gs-js","path":"/category1/page/9/","result":{"data":{"collectionInfo":{"id":"adf5d943-cf7c-560d-8bcc-180ad42e98b0","name":"Category 1","slug":"category1","description":"Lorem ipsum dolor sit amet, consectetur adipiscing elit, sed do eiusmod tempor incididunt ut labore."},"posts":{"nodes":[{"title":"Test 212","slug":"test212","icon":"shop-iconV2.svg","filters":"Test1"},{"title":"Test 213","slug":"test213","icon":"shop-iconV2.svg","filters":"Test1"},{"title":"Test 217","slug":"test217","icon":"shop-iconV2.svg","filters":"Test5, Test6"},{"title":"Test 218","slug":"test218","icon":"shop-iconV2.svg","filters":"Test1"},{"title":"Test 219","slug":"test219","icon":"shop-iconV2.svg","filters":"Test2"},{"title":"Test 220","slug":"test220","icon":"shop-iconV2.svg","filters":"Test3"},{"title":"Test 221","slug":"test221","icon":"shop-iconV2.svg","filters":"Test 3, Test4"},{"title":"Test 222","slug":"test222","icon":"shop-iconV2.svg","filters":"Test3"},{"title":"Test 223","slug":"test223","icon":"shop-iconV2.svg","filters":"Test3"},{"title":"Test 224","slug":"test224","icon":"shop-iconV2.svg","filters":"Test1"},{"title":"Test 225","slug":"test225","icon":"shop-iconV2.svg","filters":"Test1"},{"title":"Test 229","slug":"test229","icon":"shop-iconV2.svg","filters":"Test5, Test6"},{"title":"Test 230","slug":"test230","icon":"shop-iconV2.svg","filters":"Test1"},{"title":"Test 231","slug":"test231","icon":"shop-iconV2.svg","filters":"Test2"},{"title":"Test 232","slug":"test232","icon":"shop-iconV2.svg","filters":"Test3"},{"title":"Test 233","slug":"test233","icon":"shop-iconV2.svg","filters":"Test 3, Test4"},{"title":"Test 234","slug":"test234","icon":"shop-iconV2.svg","filters":"Test3"},{"title":"Test 235","slug":"test235","icon":"shop-iconV2.svg","filters":"Test3"},{"title":"Test 236","slug":"test236","icon":"shop-iconV2.svg","filters":"Test1"},{"title":"Test 237","slug":"test237","icon":"shop-iconV2.svg","filters":"Test1"}],"pageInfo":{"pageCount":11,"hasPreviousPage":true,"hasNextPage":true,"currentPage":9},"totalCount":216}},"pageContext":{"slug":"category1","limit":20,"skip":160,"collectionType":"categor","paginatePostsPage":false,"basePath":"/","services":{"algolia":false,"mailchimp":false,"disqus":false,"graphComment":false,"facebookComment":false},"siteUrl":null,"mobileMenu":{"title":"Topics","items":[{"name":"Advertising","slug":"/category/advertising/"},{"name":"Innovation","slug":"/category/innovation/"},{"name":"Management","slug":"/category/management/"},{"name":"Case Studies","slug":"/category/case-studies/"}]},"darkMode":true,"includeExcerpt":true,"includeTimeToRead":true,"includeTableOfContents":true,"imageQuality":75}},"staticQueryHashes":["1992822086","2103122295","2409295108","2899663612"]}