{"componentChunkName":"component---packages-blog-gatsby-blog-core-src-templates-author-gs-js","path":"/jane_smith/page/5/","result":{"data":{"collectionInfo":{"id":"78ac3c44-6316-51dd-8ff3-b75d84444402","slug":"jane_smith","name":"Jane Smith","photo":"jane-smith.jpg","description":"Sed commodo, est quis maximus fermentum, massa ipsum euismod neque, in varius risus tellus quis lacus. Sed ac bibendum odio.","expertise":"Advertising, Bussiness, Designer","position":"Creative Designer","instagram":"https://instagram.com/","twitter":"https://twitter.com/","website":"https://www.google.com/"},"posts":{"nodes":[{"title":"Test 123","slug":"test123","icon":"shop-iconV2.svg","filters":"Test2"},{"title":"Test 124","slug":"test124","icon":"shop-iconV2.svg","filters":"Test3"},{"title":"Test 126","slug":"test126","icon":"shop-iconV2.svg","filters":"Test3"},{"title":"Test 127","slug":"test127","icon":"shop-iconV2.svg","filters":"Test3"},{"title":"Test 128","slug":"test128","icon":"shop-iconV2.svg","filters":"Test1"},{"title":"Test 129","slug":"test129","icon":"shop-iconV2.svg","filters":"Test1"},{"title":"Test 131","slug":"test131","icon":"shop-iconV2.svg","filters":"Test3, Test4"},{"title":"Test 132","slug":"test132","icon":"shop-iconV2.svg","filters":"Test5, Test6"},{"title":"Test 135","slug":"test135","icon":"shop-iconV2.svg","filters":"Test2"},{"title":"Test 136","slug":"test136","icon":"shop-iconV2.svg","filters":"Test3"},{"title":"Test 138","slug":"test138","icon":"shop-iconV2.svg","filters":"Test3"},{"title":"Test 139","slug":"test139","icon":"shop-iconV2.svg","filters":"Test3"},{"title":"Test 140","slug":"test140","icon":"shop-iconV2.svg","filters":"Test1"},{"title":"Test 141","slug":"test141","icon":"shop-iconV2.svg","filters":"Test1"},{"title":"Test 143","slug":"test143","icon":"shop-iconV2.svg","filters":"Test3, Test4"},{"title":"Test 144","slug":"test144","icon":"shop-iconV2.svg","filters":"Test5, Test6"},{"title":"Test 147","slug":"test147","icon":"shop-iconV2.svg","filters":"Test2"},{"title":"Test 148","slug":"test148","icon":"shop-iconV2.svg","filters":"Test3"},{"title":"Test 150","slug":"test150","icon":"shop-iconV2.svg","filters":"Test3"},{"title":"Test 151","slug":"test151","icon":"shop-iconV2.svg","filters":"Test3"}],"pageInfo":{"pageCount":10,"hasPreviousPage":true,"hasNextPage":true,"currentPage":5},"totalCount":192}},"pageContext":{"slug":"jane_smith","limit":20,"skip":80,"collectionType":"autho","paginatePostsPage":false,"basePath":"/","services":{"algolia":false,"mailchimp":false,"disqus":false,"graphComment":false,"facebookComment":false},"siteUrl":null,"mobileMenu":{"title":"Topics","items":[{"name":"Advertising","slug":"/category/advertising/"},{"name":"Innovation","slug":"/category/innovation/"},{"name":"Management","slug":"/category/management/"},{"name":"Case Studies","slug":"/category/case-studies/"}]},"darkMode":true,"includeExcerpt":true,"includeTimeToRead":true,"includeTableOfContents":true,"imageQuality":75}},"staticQueryHashes":["1992822086","2103122295","2409295108","2899663612"]}