{"componentChunkName":"component---packages-blog-gatsby-blog-core-src-templates-author-gs-js","path":"/jane_smith/page/3/","result":{"data":{"collectionInfo":{"id":"78ac3c44-6316-51dd-8ff3-b75d84444402","slug":"jane_smith","name":"Jane Smith","photo":"jane-smith.jpg","description":"Sed commodo, est quis maximus fermentum, massa ipsum euismod neque, in varius risus tellus quis lacus. Sed ac bibendum odio.","expertise":"Advertising, Bussiness, Designer","position":"Creative Designer","instagram":"https://instagram.com/","twitter":"https://twitter.com/","website":"https://www.google.com/"},"posts":{"nodes":[{"title":"Test 63","slug":"test63","icon":"shop-iconV2.svg","filters":"Test2"},{"title":"Test 64","slug":"test64","icon":"shop-iconV2.svg","filters":"Test3"},{"title":"Test 66","slug":"test66","icon":"shop-iconV2.svg","filters":"Test3"},{"title":"Test 67","slug":"test67","icon":"shop-iconV2.svg","filters":"Test3"},{"title":"Test 68","slug":"test68","icon":"shop-iconV2.svg","filters":"Test1"},{"title":"Test 69","slug":"test69","icon":"shop-iconV2.svg","filters":"Test1"},{"title":"Test 71","slug":"test71","icon":"shop-iconV2.svg","filters":"Test3, Test4"},{"title":"Test 72","slug":"test72","icon":"shop-iconV2.svg","filters":"Test5, Test6"},{"title":"Test 75","slug":"test75","icon":"shop-iconV2.svg","filters":"Test2"},{"title":"Test 76","slug":"test76","icon":"shop-iconV2.svg","filters":"Test3"},{"title":"Test 78","slug":"test78","icon":"shop-iconV2.svg","filters":"Test3"},{"title":"Test 79","slug":"test79","icon":"shop-iconV2.svg","filters":"Test3"},{"title":"Test 80","slug":"test80","icon":"shop-iconV2.svg","filters":"Test1"},{"title":"Test 81","slug":"test81","icon":"shop-iconV2.svg","filters":"Test1"},{"title":"Test 83","slug":"test83","icon":"shop-iconV2.svg","filters":"Test3, Test4"},{"title":"Test 84","slug":"test84","icon":"shop-iconV2.svg","filters":"Test5, Test6"},{"title":"Test 87","slug":"test87","icon":"shop-iconV2.svg","filters":"Test2"},{"title":"Test 88","slug":"test88","icon":"shop-iconV2.svg","filters":"Test3"},{"title":"Test 90","slug":"test90","icon":"shop-iconV2.svg","filters":"Test3"},{"title":"Test 91","slug":"test91","icon":"shop-iconV2.svg","filters":"Test3"}],"pageInfo":{"pageCount":10,"hasPreviousPage":true,"hasNextPage":true,"currentPage":3},"totalCount":192}},"pageContext":{"slug":"jane_smith","limit":20,"skip":40,"collectionType":"autho","paginatePostsPage":false,"basePath":"/","services":{"algolia":false,"mailchimp":false,"disqus":false,"graphComment":false,"facebookComment":false},"siteUrl":null,"mobileMenu":{"title":"Topics","items":[{"name":"Advertising","slug":"/category/advertising/"},{"name":"Innovation","slug":"/category/innovation/"},{"name":"Management","slug":"/category/management/"},{"name":"Case Studies","slug":"/category/case-studies/"}]},"darkMode":true,"includeExcerpt":true,"includeTimeToRead":true,"includeTableOfContents":true,"imageQuality":75}},"staticQueryHashes":["1992822086","2103122295","2409295108","2899663612"]}