{"componentChunkName":"component---packages-blog-gatsby-blog-core-src-templates-author-gs-js","path":"/jane_smith/page/10/","result":{"data":{"collectionInfo":{"id":"78ac3c44-6316-51dd-8ff3-b75d84444402","slug":"jane_smith","name":"Jane Smith","photo":"jane-smith.jpg","description":"Sed commodo, est quis maximus fermentum, massa ipsum euismod neque, in varius risus tellus quis lacus. Sed ac bibendum odio.","expertise":"Advertising, Bussiness, Designer","position":"Creative Designer","instagram":"https://instagram.com/","twitter":"https://twitter.com/","website":"https://www.google.com/"},"posts":{"nodes":[{"title":"Test 272","slug":"test272","icon":"shop-iconV2.svg","filters":"Test1"},{"title":"Test 273","slug":"test273","icon":"shop-iconV2.svg","filters":"Test1"},{"title":"Test 275","slug":"test275","icon":"shop-iconV2.svg","filters":"Test3, Test4"},{"title":"Test 276","slug":"test276","icon":"shop-iconV2.svg","filters":"Test5, Test6"},{"title":"Test 279","slug":"test279","icon":"shop-iconV2.svg","filters":"Test2"},{"title":"Test 280","slug":"test280","icon":"shop-iconV2.svg","filters":"Test3"},{"title":"Test 282","slug":"test282","icon":"shop-iconV2.svg","filters":"Test3"},{"title":"Test 283","slug":"test283","icon":"shop-iconV2.svg","filters":"Test3"},{"title":"Test 284","slug":"test284","icon":"shop-iconV2.svg","filters":"Test1"},{"title":"Test 285","slug":"test285","icon":"shop-iconV2.svg","filters":"Test1"},{"title":"Test 287","slug":"test287","icon":"shop-iconV2.svg","filters":"Test3, Test4"},{"title":"Test 288","slug":"test288","icon":"shop-iconV2.svg","filters":"Test5, Test6"}],"pageInfo":{"pageCount":10,"hasPreviousPage":true,"hasNextPage":false,"currentPage":10},"totalCount":192}},"pageContext":{"slug":"jane_smith","limit":20,"skip":180,"collectionType":"autho","paginatePostsPage":false,"basePath":"/","services":{"algolia":false,"mailchimp":false,"disqus":false,"graphComment":false,"facebookComment":false},"siteUrl":null,"mobileMenu":{"title":"Topics","items":[{"name":"Advertising","slug":"/category/advertising/"},{"name":"Innovation","slug":"/category/innovation/"},{"name":"Management","slug":"/category/management/"},{"name":"Case Studies","slug":"/category/case-studies/"}]},"darkMode":true,"includeExcerpt":true,"includeTimeToRead":true,"includeTableOfContents":true,"imageQuality":75}},"staticQueryHashes":["1992822086","2103122295","2409295108","2899663612"]}