{"componentChunkName":"component---packages-blog-gatsby-blog-core-src-templates-categories-gs-js","path":"/category1/page/4/","result":{"data":{"collectionInfo":{"id":"adf5d943-cf7c-560d-8bcc-180ad42e98b0","name":"Category 1","slug":"category1","description":"Lorem ipsum dolor sit amet, consectetur adipiscing elit, sed do eiusmod tempor incididunt ut labore."},"posts":{"nodes":[{"title":"Test 79","slug":"test79","icon":"shop-iconV2.svg","filters":"Test3"},{"title":"Test 80","slug":"test80","icon":"shop-iconV2.svg","filters":"Test1"},{"title":"Test 81","slug":"test81","icon":"shop-iconV2.svg","filters":"Test1"},{"title":"Test 85","slug":"test85","icon":"shop-iconV2.svg","filters":"Test5, Test6"},{"title":"Test 86","slug":"test86","icon":"shop-iconV2.svg","filters":"Test1"},{"title":"Test 87","slug":"test87","icon":"shop-iconV2.svg","filters":"Test2"},{"title":"Test 88","slug":"test88","icon":"shop-iconV2.svg","filters":"Test3"},{"title":"Test 89","slug":"test89","icon":"shop-iconV2.svg","filters":"Test 3, Test4"},{"title":"Test 90","slug":"test90","icon":"shop-iconV2.svg","filters":"Test3"},{"title":"Test 91","slug":"test91","icon":"shop-iconV2.svg","filters":"Test3"},{"title":"Test 92","slug":"test92","icon":"shop-iconV2.svg","filters":"Test1"},{"title":"Test 93","slug":"test93","icon":"shop-iconV2.svg","filters":"Test1"},{"title":"Test 97","slug":"test97","icon":"shop-iconV2.svg","filters":"Test5, Test6"},{"title":"Test 98","slug":"test98","icon":"shop-iconV2.svg","filters":"Test1"},{"title":"Test 99","slug":"test99","icon":"shop-iconV2.svg","filters":"Test2"},{"title":"Test 100","slug":"test100","icon":"shop-iconV2.svg","filters":"Test3"},{"title":"Test 101","slug":"test101","icon":"shop-iconV2.svg","filters":"Test 3, Test4"},{"title":"Test 102","slug":"test102","icon":"shop-iconV2.svg","filters":"Test3"},{"title":"Test 103","slug":"test103","icon":"shop-iconV2.svg","filters":"Test3"},{"title":"Test 104","slug":"test104","icon":"shop-iconV2.svg","filters":"Test1"}],"pageInfo":{"pageCount":11,"hasPreviousPage":true,"hasNextPage":true,"currentPage":4},"totalCount":216}},"pageContext":{"slug":"category1","limit":20,"skip":60,"collectionType":"categor","paginatePostsPage":false,"basePath":"/","services":{"algolia":false,"mailchimp":false,"disqus":false,"graphComment":false,"facebookComment":false},"siteUrl":null,"mobileMenu":{"title":"Topics","items":[{"name":"Advertising","slug":"/category/advertising/"},{"name":"Innovation","slug":"/category/innovation/"},{"name":"Management","slug":"/category/management/"},{"name":"Case Studies","slug":"/category/case-studies/"}]},"darkMode":true,"includeExcerpt":true,"includeTimeToRead":true,"includeTableOfContents":true,"imageQuality":75}},"staticQueryHashes":["1992822086","2103122295","2409295108","2899663612"]}