{"componentChunkName":"component---packages-blog-gatsby-blog-core-src-templates-categories-gs-js","path":"/category1/page/7/","result":{"data":{"collectionInfo":{"id":"adf5d943-cf7c-560d-8bcc-180ad42e98b0","name":"Category 1","slug":"category1","description":"Lorem ipsum dolor sit amet, consectetur adipiscing elit, sed do eiusmod tempor incididunt ut labore."},"posts":{"nodes":[{"title":"Test 160","slug":"test160","icon":"shop-iconV2.svg","filters":"Test3"},{"title":"Test 161","slug":"test161","icon":"shop-iconV2.svg","filters":"Test 3, Test4"},{"title":"Test 162","slug":"test162","icon":"shop-iconV2.svg","filters":"Test3"},{"title":"Test 163","slug":"test163","icon":"shop-iconV2.svg","filters":"Test3"},{"title":"Test 164","slug":"test164","icon":"shop-iconV2.svg","filters":"Test1"},{"title":"Test 165","slug":"test165","icon":"shop-iconV2.svg","filters":"Test1"},{"title":"Test 169","slug":"test169","icon":"shop-iconV2.svg","filters":"Test5, Test6"},{"title":"Test 170","slug":"test170","icon":"shop-iconV2.svg","filters":"Test1"},{"title":"Test 171","slug":"test171","icon":"shop-iconV2.svg","filters":"Test2"},{"title":"Test 172","slug":"test172","icon":"shop-iconV2.svg","filters":"Test3"},{"title":"Test 173","slug":"test173","icon":"shop-iconV2.svg","filters":"Test 3, Test4"},{"title":"Test 174","slug":"test174","icon":"shop-iconV2.svg","filters":"Test3"},{"title":"Test 175","slug":"test175","icon":"shop-iconV2.svg","filters":"Test3"},{"title":"Test 176","slug":"test176","icon":"shop-iconV2.svg","filters":"Test1"},{"title":"Test 177","slug":"test177","icon":"shop-iconV2.svg","filters":"Test1"},{"title":"Test 181","slug":"test181","icon":"shop-iconV2.svg","filters":"Test5, Test6"},{"title":"Test 182","slug":"test182","icon":"shop-iconV2.svg","filters":"Test1"},{"title":"Test 183","slug":"test183","icon":"shop-iconV2.svg","filters":"Test2"},{"title":"Test 184","slug":"test184","icon":"shop-iconV2.svg","filters":"Test3"},{"title":"Test 185","slug":"test185","icon":"shop-iconV2.svg","filters":"Test 3, Test4"}],"pageInfo":{"pageCount":11,"hasPreviousPage":true,"hasNextPage":true,"currentPage":7},"totalCount":216}},"pageContext":{"slug":"category1","limit":20,"skip":120,"collectionType":"categor","paginatePostsPage":false,"basePath":"/","services":{"algolia":false,"mailchimp":false,"disqus":false,"graphComment":false,"facebookComment":false},"siteUrl":null,"mobileMenu":{"title":"Topics","items":[{"name":"Advertising","slug":"/category/advertising/"},{"name":"Innovation","slug":"/category/innovation/"},{"name":"Management","slug":"/category/management/"},{"name":"Case Studies","slug":"/category/case-studies/"}]},"darkMode":true,"includeExcerpt":true,"includeTimeToRead":true,"includeTableOfContents":true,"imageQuality":75}},"staticQueryHashes":["1992822086","2103122295","2409295108","2899663612"]}