{"componentChunkName":"component---packages-blog-gatsby-blog-core-src-templates-author-gs-js","path":"/john_doe/","result":{"data":{"collectionInfo":{"id":"eb33d9e2-4672-541d-acc6-ddc5c5f95b5b","slug":"john_doe","name":"John Doe","photo":"john-doe.jpg","description":"Sed commodo, est quis maximus fermentum, massa ipsum euismod neque, in varius risus tellus quis lacus. Sed ac bibendum odio.","expertise":"JavaScript, React, Nodejs","position":"Web Developer","instagram":"https://instagram.com/","twitter":"https://twitter.com/","website":"https://www.google.com/"},"posts":{"nodes":[{"title":"Test 1","slug":"test1","icon":"shop-iconV2.svg","filters":"Test5, Test6"},{"title":"Test 2","slug":"test2","icon":"shop-iconV2.svg","filters":"Test1"},{"title":"Test 5","slug":"test5","icon":"shop-iconV2.svg","filters":"Test 3, Test4"},{"title":"Test 10","slug":"test10","icon":"shop-iconV2.svg","filters":"Test2"},{"title":"Test 13","slug":"test13","icon":"shop-iconV2.svg","filters":"Test5, Test6"},{"title":"Test 14","slug":"test14","icon":"shop-iconV2.svg","filters":"Test1"},{"title":"Test 17","slug":"test17","icon":"shop-iconV2.svg","filters":"Test 3, Test4"},{"title":"Test 22","slug":"test22","icon":"shop-iconV2.svg","filters":"Test2"},{"title":"Test 25","slug":"test25","icon":"shop-iconV2.svg","filters":"Test5, Test6"},{"title":"Test 26","slug":"test26","icon":"shop-iconV2.svg","filters":"Test1"},{"title":"Test 29","slug":"test29","icon":"shop-iconV2.svg","filters":"Test 3, Test4"},{"title":"Test 34","slug":"test34","icon":"shop-iconV2.svg","filters":"Test2"},{"title":"Test 37","slug":"test37","icon":"shop-iconV2.svg","filters":"Test5, Test6"},{"title":"Test 38","slug":"test38","icon":"shop-iconV2.svg","filters":"Test1"},{"title":"Test 41","slug":"test41","icon":"shop-iconV2.svg","filters":"Test 3, Test4"},{"title":"Test 46","slug":"test46","icon":"shop-iconV2.svg","filters":"Test2"},{"title":"Test 49","slug":"test49","icon":"shop-iconV2.svg","filters":"Test5, Test6"},{"title":"Test 50","slug":"test50","icon":"shop-iconV2.svg","filters":"Test1"},{"title":"Test 53","slug":"test53","icon":"shop-iconV2.svg","filters":"Test 3, Test4"},{"title":"Test 58","slug":"test58","icon":"shop-iconV2.svg","filters":"Test2"}],"pageInfo":{"pageCount":5,"hasPreviousPage":false,"hasNextPage":true,"currentPage":1},"totalCount":96}},"pageContext":{"slug":"john_doe","limit":20,"skip":0,"collectionType":"autho","paginatePostsPage":false,"basePath":"/","services":{"algolia":false,"mailchimp":false,"disqus":false,"graphComment":false,"facebookComment":false},"siteUrl":null,"mobileMenu":{"title":"Topics","items":[{"name":"Advertising","slug":"/category/advertising/"},{"name":"Innovation","slug":"/category/innovation/"},{"name":"Management","slug":"/category/management/"},{"name":"Case Studies","slug":"/category/case-studies/"}]},"darkMode":true,"includeExcerpt":true,"includeTimeToRead":true,"includeTableOfContents":true,"imageQuality":75}},"staticQueryHashes":["1992822086","2103122295","2409295108","2899663612"]}