{"componentChunkName":"component---packages-blog-gatsby-blog-core-src-templates-categories-gs-js","path":"/category1/page/2/","result":{"data":{"collectionInfo":{"id":"adf5d943-cf7c-560d-8bcc-180ad42e98b0","name":"Category 1","slug":"category1","description":"Lorem ipsum dolor sit amet, consectetur adipiscing elit, sed do eiusmod tempor incididunt ut labore."},"posts":{"nodes":[{"title":"Test 27","slug":"test27","icon":"shop-iconV2.svg","filters":"Test2"},{"title":"Test 28","slug":"test28","icon":"shop-iconV2.svg","filters":"Test3"},{"title":"Test 29","slug":"test29","icon":"shop-iconV2.svg","filters":"Test 3, Test4"},{"title":"Test 30","slug":"test30","icon":"shop-iconV2.svg","filters":"Test3"},{"title":"Test 31","slug":"test31","icon":"shop-iconV2.svg","filters":"Test3"},{"title":"Test 32","slug":"test32","icon":"shop-iconV2.svg","filters":"Test1"},{"title":"Test 33","slug":"test33","icon":"shop-iconV2.svg","filters":"Test1"},{"title":"Test 37","slug":"test37","icon":"shop-iconV2.svg","filters":"Test5, Test6"},{"title":"Test 38","slug":"test38","icon":"shop-iconV2.svg","filters":"Test1"},{"title":"Test 39","slug":"test39","icon":"shop-iconV2.svg","filters":"Test2"},{"title":"Test 40","slug":"test40","icon":"shop-iconV2.svg","filters":"Test3"},{"title":"Test 41","slug":"test41","icon":"shop-iconV2.svg","filters":"Test 3, Test4"},{"title":"Test 42","slug":"test42","icon":"shop-iconV2.svg","filters":"Test3"},{"title":"Test 43","slug":"test43","icon":"shop-iconV2.svg","filters":"Test3"},{"title":"Test 44","slug":"test44","icon":"shop-iconV2.svg","filters":"Test1"},{"title":"Test 45","slug":"test45","icon":"shop-iconV2.svg","filters":"Test1"},{"title":"Test 49","slug":"test49","icon":"shop-iconV2.svg","filters":"Test5, Test6"},{"title":"Test 50","slug":"test50","icon":"shop-iconV2.svg","filters":"Test1"},{"title":"Test 51","slug":"test51","icon":"shop-iconV2.svg","filters":"Test2"},{"title":"Test 52","slug":"test52","icon":"shop-iconV2.svg","filters":"Test3"}],"pageInfo":{"pageCount":11,"hasPreviousPage":true,"hasNextPage":true,"currentPage":2},"totalCount":216}},"pageContext":{"slug":"category1","limit":20,"skip":20,"collectionType":"categor","paginatePostsPage":false,"basePath":"/","services":{"algolia":false,"mailchimp":false,"disqus":false,"graphComment":false,"facebookComment":false},"siteUrl":null,"mobileMenu":{"title":"Topics","items":[{"name":"Advertising","slug":"/category/advertising/"},{"name":"Innovation","slug":"/category/innovation/"},{"name":"Management","slug":"/category/management/"},{"name":"Case Studies","slug":"/category/case-studies/"}]},"darkMode":true,"includeExcerpt":true,"includeTimeToRead":true,"includeTableOfContents":true,"imageQuality":75}},"staticQueryHashes":["1992822086","2103122295","2409295108","2899663612"]}