{"componentChunkName":"component---packages-blog-gatsby-blog-core-src-templates-author-gs-js","path":"/jane_smith/","result":{"data":{"collectionInfo":{"id":"78ac3c44-6316-51dd-8ff3-b75d84444402","slug":"jane_smith","name":"Jane Smith","photo":"jane-smith.jpg","description":"Sed commodo, est quis maximus fermentum, massa ipsum euismod neque, in varius risus tellus quis lacus. Sed ac bibendum odio.","expertise":"Advertising, Bussiness, Designer","position":"Creative Designer","instagram":"https://instagram.com/","twitter":"https://twitter.com/","website":"https://www.google.com/"},"posts":{"nodes":[{"title":"Test 3","slug":"test3","icon":"shop-iconV2.svg","filters":"Test2"},{"title":"Test 4","slug":"test4","icon":"shop-iconV2.svg","filters":"Test3"},{"title":"Test 6","slug":"test6","icon":"shop-iconV2.svg","filters":"Test3"},{"title":"Test 7","slug":"test7","icon":"shop-iconV2.svg","filters":"Test3"},{"title":"Test 8","slug":"test8","icon":"shop-iconV2.svg","filters":"Test1"},{"title":"Test 9","slug":"test9","icon":"shop-iconV2.svg","filters":"Test1"},{"title":"Test 11","slug":"test11","icon":"shop-iconV2.svg","filters":"Test3, Test4"},{"title":"Test 12","slug":"test12","icon":"shop-iconV2.svg","filters":"Test5, Test6"},{"title":"Test 15","slug":"test15","icon":"shop-iconV2.svg","filters":"Test2"},{"title":"Test 16","slug":"test16","icon":"shop-iconV2.svg","filters":"Test3"},{"title":"Test 18","slug":"test18","icon":"shop-iconV2.svg","filters":"Test3"},{"title":"Test 19","slug":"test19","icon":"shop-iconV2.svg","filters":"Test3"},{"title":"Test 20","slug":"test20","icon":"shop-iconV2.svg","filters":"Test1"},{"title":"Test 21","slug":"test21","icon":"shop-iconV2.svg","filters":"Test1"},{"title":"Test 23","slug":"test23","icon":"shop-iconV2.svg","filters":"Test3, Test4"},{"title":"Test 24","slug":"test24","icon":"shop-iconV2.svg","filters":"Test5, Test6"},{"title":"Test 27","slug":"test27","icon":"shop-iconV2.svg","filters":"Test2"},{"title":"Test 28","slug":"test28","icon":"shop-iconV2.svg","filters":"Test3"},{"title":"Test 30","slug":"test30","icon":"shop-iconV2.svg","filters":"Test3"},{"title":"Test 31","slug":"test31","icon":"shop-iconV2.svg","filters":"Test3"}],"pageInfo":{"pageCount":10,"hasPreviousPage":false,"hasNextPage":true,"currentPage":1},"totalCount":192}},"pageContext":{"slug":"jane_smith","limit":20,"skip":0,"collectionType":"autho","paginatePostsPage":false,"basePath":"/","services":{"algolia":false,"mailchimp":false,"disqus":false,"graphComment":false,"facebookComment":false},"siteUrl":null,"mobileMenu":{"title":"Topics","items":[{"name":"Advertising","slug":"/category/advertising/"},{"name":"Innovation","slug":"/category/innovation/"},{"name":"Management","slug":"/category/management/"},{"name":"Case Studies","slug":"/category/case-studies/"}]},"darkMode":true,"includeExcerpt":true,"includeTimeToRead":true,"includeTableOfContents":true,"imageQuality":75}},"staticQueryHashes":["1992822086","2103122295","2409295108","2899663612"]}